<?xml version="1.0" encoding="UTF-8"?>
<svg width="40px" height="10px" viewBox="0 0 40 10" version="1.1" xmlns="http://www.w3.org/2000/svg" xmlns:xlink="http://www.w3.org/1999/xlink">
    <!-- Generator: Sketch 50 (54983) - http://www.bohemiancoding.com/sketch -->
    <title>Line 2</title>
    <desc>Created with Sketch.</desc>
    <defs></defs>
    <g id="Page-1" stroke="none" stroke-width="1" fill="none" fill-rule="evenodd" stroke-linecap="square" stroke-linejoin="round">
        <g id="10_Single_news_img_320" transform="translate(-19.000000, -101.000000)" stroke="#000000">
            <g id="Доп-меню" transform="translate(0.000000, 80.000000)">
                <g id="Group-2" transform="translate(20.000000, 17.000000)">
                    <path d="M0.25,8.75 L4.85977223,4.14022777 L0.25,8.75 Z M0.25,9.25 L4.85977223,13.8597722 L0.25,9.25 Z M1,8.5 L39,8.5 L1,8.5 Z" id="Line-2"></path>
                </g>
            </g>
        </g>
    </g>
</svg>