<svg xmlns="http://www.w3.org/2000/svg" width="569" height="762" viewBox="0 0 569 762">
    <g fill="#FFF" fill-rule="evenodd" stroke="#153075" stroke-width="1.76" opacity=".5">
        <g transform="matrix(0 -1 1 0 1 901.977)">
            <ellipse cx="328.301" cy="328.398" rx="328.301" ry="328.398"/>
            <ellipse cx="328.301" cy="328.398" rx="300.136" ry="300.224"/>
            <ellipse cx="330.061" cy="330.159" rx="273.731" ry="273.812"/>
            <ellipse cx="328.301" cy="328.398" rx="242.045" ry="242.116"/>
            <ellipse cx="328.301" cy="328.398" rx="212.119" ry="212.182"/>
            <ellipse cx="328.301" cy="328.398" rx="182.194" ry="182.248"/>
            <ellipse cx="329.181" cy="329.278" rx="154.909" ry="154.954"/>
            <ellipse cx="329.181" cy="329.278" rx="132.025" ry="132.063"/>
        </g>
        <g transform="matrix(0 -1 1 0 1 326.35)">
            <ellipse cx="328.301" cy="328.398" rx="328.301" ry="328.398"/>
            <ellipse cx="328.301" cy="328.398" rx="300.136" ry="300.224"/>
            <ellipse cx="330.061" cy="330.159" rx="273.731" ry="273.812"/>
            <ellipse cx="328.301" cy="328.398" rx="242.045" ry="242.116"/>
            <ellipse cx="328.301" cy="328.398" rx="212.119" ry="212.182"/>
            <ellipse cx="328.301" cy="328.398" rx="182.194" ry="182.248"/>
            <ellipse cx="329.181" cy="329.278" rx="154.909" ry="154.954"/>
            <ellipse cx="329.181" cy="329.278" rx="132.025" ry="132.063"/>
        </g>
        <g transform="rotate(-90 567.676 527.937)">
            <ellipse cx="235.884" cy="235.953" rx="235.884" ry="235.953"/>
            <ellipse cx="235.884" cy="235.953" rx="207.719" ry="207.78"/>
            <ellipse cx="235.884" cy="235.953" rx="179.553" ry="179.606"/>
            <ellipse cx="235.884" cy="235.953" rx="151.388" ry="151.433"/>
            <ellipse cx="235.884" cy="235.953" rx="123.223" ry="123.259"/>
        </g>
        <g transform="rotate(-90 280.742 241.004)">
            <ellipse cx="235.884" cy="235.953" rx="235.884" ry="235.953"/>
            <ellipse cx="235.884" cy="235.953" rx="207.719" ry="207.78"/>
            <ellipse cx="235.884" cy="235.953" rx="179.553" ry="179.606"/>
            <ellipse cx="235.884" cy="235.953" rx="151.388" ry="151.433"/>
            <ellipse cx="235.884" cy="235.953" rx="123.223" ry="123.259"/>
            <ellipse cx="235.884" cy="235.953" rx="95.058" ry="95.086"/>
        </g>
        <g>
            <g transform="rotate(-90 536.009 365.968)">
                <ellipse cx="328.301" cy="328.398" rx="328.301" ry="328.398"/>
                <ellipse cx="328.301" cy="328.398" rx="300.136" ry="300.224"/>
                <ellipse cx="330.061" cy="330.159" rx="273.731" ry="273.812"/>
                <ellipse cx="328.301" cy="328.398" rx="242.045" ry="242.116"/>
                <ellipse cx="328.301" cy="328.398" rx="212.119" ry="212.182"/>
                <ellipse cx="328.301" cy="328.398" rx="182.194" ry="182.248"/>
                <ellipse cx="329.181" cy="329.278" rx="154.909" ry="154.954"/>
                <ellipse cx="329.181" cy="329.278" rx="132.025" ry="132.063"/>
            </g>
            <g transform="rotate(-90 248.195 78.154)">
                <ellipse cx="328.301" cy="328.398" rx="328.301" ry="328.398"/>
                <ellipse cx="328.301" cy="328.398" rx="300.136" ry="300.224"/>
                <ellipse cx="330.061" cy="330.159" rx="273.731" ry="273.812"/>
                <ellipse cx="328.301" cy="328.398" rx="242.045" ry="242.116"/>
                <ellipse cx="328.301" cy="328.398" rx="212.119" ry="212.182"/>
                <ellipse cx="328.301" cy="328.398" rx="182.194" ry="182.248"/>
                <ellipse cx="329.181" cy="329.278" rx="154.909" ry="154.954"/>
                <ellipse cx="329.181" cy="329.278" rx="132.025" ry="132.063"/>
            </g>
            <g transform="rotate(-90 652.196 443.416)">
                <ellipse cx="235.884" cy="235.953" rx="235.884" ry="235.953"/>
                <ellipse cx="235.884" cy="235.953" rx="207.719" ry="207.78"/>
                <ellipse cx="235.884" cy="235.953" rx="179.553" ry="179.606"/>
                <ellipse cx="235.884" cy="235.953" rx="151.388" ry="151.433"/>
                <ellipse cx="235.884" cy="235.953" rx="123.223" ry="123.259"/>
            </g>
            <g transform="rotate(-90 365.263 156.483)">
                <ellipse cx="235.884" cy="235.953" rx="235.884" ry="235.953"/>
                <ellipse cx="235.884" cy="235.953" rx="207.719" ry="207.78"/>
                <ellipse cx="235.884" cy="235.953" rx="179.553" ry="179.606"/>
                <ellipse cx="235.884" cy="235.953" rx="151.388" ry="151.433"/>
                <ellipse cx="235.884" cy="235.953" rx="123.223" ry="123.259"/>
                <ellipse cx="235.884" cy="235.953" rx="95.058" ry="95.086"/>
            </g>
        </g>
        <g>
            <g transform="rotate(-90 622.29 279.686)">
                <ellipse cx="328.301" cy="328.398" rx="328.301" ry="328.398"/>
                <ellipse cx="328.301" cy="328.398" rx="300.136" ry="300.224"/>
                <ellipse cx="330.061" cy="330.159" rx="273.731" ry="273.812"/>
                <ellipse cx="328.301" cy="328.398" rx="242.045" ry="242.116"/>
                <ellipse cx="328.301" cy="328.398" rx="212.119" ry="212.182"/>
                <ellipse cx="328.301" cy="328.398" rx="182.194" ry="182.248"/>
                <ellipse cx="329.181" cy="329.278" rx="154.909" ry="154.954"/>
                <ellipse cx="329.181" cy="329.278" rx="132.025" ry="132.063"/>
            </g>
            <g transform="rotate(-90 334.477 -8.127)">
                <ellipse cx="328.301" cy="328.398" rx="328.301" ry="328.398"/>
                <ellipse cx="328.301" cy="328.398" rx="300.136" ry="300.224"/>
                <ellipse cx="330.061" cy="330.159" rx="273.731" ry="273.812"/>
                <ellipse cx="328.301" cy="328.398" rx="242.045" ry="242.116"/>
                <ellipse cx="328.301" cy="328.398" rx="212.119" ry="212.182"/>
                <ellipse cx="328.301" cy="328.398" rx="182.194" ry="182.248"/>
                <ellipse cx="329.181" cy="329.278" rx="154.909" ry="154.954"/>
                <ellipse cx="329.181" cy="329.278" rx="132.025" ry="132.063"/>
            </g>
            <g transform="rotate(-90 738.478 357.135)">
                <ellipse cx="235.884" cy="235.953" rx="235.884" ry="235.953"/>
                <ellipse cx="235.884" cy="235.953" rx="207.719" ry="207.78"/>
                <ellipse cx="235.884" cy="235.953" rx="179.553" ry="179.606"/>
                <ellipse cx="235.884" cy="235.953" rx="151.388" ry="151.433"/>
                <ellipse cx="235.884" cy="235.953" rx="123.223" ry="123.259"/>
            </g>
            <g transform="rotate(-90 451.544 70.202)">
                <ellipse cx="235.884" cy="235.953" rx="235.884" ry="235.953"/>
                <ellipse cx="235.884" cy="235.953" rx="207.719" ry="207.78"/>
                <ellipse cx="235.884" cy="235.953" rx="179.553" ry="179.606"/>
                <ellipse cx="235.884" cy="235.953" rx="151.388" ry="151.433"/>
                <ellipse cx="235.884" cy="235.953" rx="123.223" ry="123.259"/>
                <ellipse cx="235.884" cy="235.953" rx="95.058" ry="95.086"/>
            </g>
        </g>
    </g>
</svg>
