<?xml version="1.0" encoding="UTF-8"?>
<svg width="742px" height="985px" viewBox="0 0 742 985" version="1.1" xmlns="http://www.w3.org/2000/svg" xmlns:xlink="http://www.w3.org/1999/xlink">
    <!-- Generator: Sketch 50 (54983) - http://www.bohemiancoding.com/sketch -->
    <title>Group 3</title>
    <desc>Created with Sketch.</desc>
    <defs></defs>
    <g id="Главная" stroke="none" stroke-width="1" fill="none" fill-rule="evenodd">
        <g id="sf_tablet_768" transform="translate(-13.000000, -4144.000000)" stroke="#B59B61" stroke-width="0.5">
            <g id="5" transform="translate(0.000000, 4115.000000)">
                <g id="Group-3" transform="translate(14.000000, 30.000000)">
                    <polygon id="Mask-Copy-2" points="40 40 40 0 700 0 700 40 740 40 740 943 700 943 700 983 40 983 40 943 0 943 0 40"></polygon>
                    <polygon id="Rectangle-Copy-3" points="20 20 720 20 720 963 20 963"></polygon>
                </g>
            </g>
        </g>
    </g>
</svg>