<svg xmlns="http://www.w3.org/2000/svg" width="577" height="133" viewBox="0 0 577 133">
    <path fill="#000" fill-opacity=".3" fill-rule="evenodd" stroke="#FFF" d="M549.5 129v-17.718l.26-.142c16.487-9.04 26.74-25.055 26.74-42.64s-10.253-33.6-26.74-42.64l-.26-.142V4A3.5 3.5 0 0 0 546 .5H29A3.5 3.5 0 0 0 25.5 4v22.853l-.242.146C9.896 36.237.5 51.661.5 68.5c0 16.84 9.396 32.263 24.758 41.5l.242.147V129a3.5 3.5 0 0 0 3.5 3.5h517a3.5 3.5 0 0 0 3.5-3.5z"/>
</svg>
