<?xml version="1.0" encoding="utf-8"?>
<!-- Generator: Adobe Illustrator 22.1.0, SVG Export Plug-In . SVG Version: 6.00 Build 0)  -->
<svg version="1.1" id="Слой_1" xmlns="http://www.w3.org/2000/svg" xmlns:xlink="http://www.w3.org/1999/xlink" x="0px" y="0px"
	 width="23px" height="15px" viewBox="0 0 23 15" enable-background="new 0 0 23 15" xml:space="preserve">
<path fill="#FFFFFF" d="M23,6.7v6.4c0,1-0.8,1.9-1.8,1.9H1.8c-1,0-1.8-0.8-1.8-1.9V6.7H23z M1.8,8.3v1.3h9.6V8.3H1.8z M1.8,10.9v1.3
	h5.5v-1.3H1.8z M1.8,0h19.4c1,0,1.8,0.8,1.8,1.9v1.7H0V1.9C0,0.8,0.8,0,1.8,0z"/>
</svg>
