<svg xmlns="http://www.w3.org/2000/svg" width="35" height="35" viewBox="0 0 35 35">
    <g fill="none" fill-rule="evenodd">
        <circle cx="17.5" cy="17.5" r="17.5" fill="#F5F5F5"/>
        <g stroke="#000" stroke-linejoin="round" stroke-width=".75">
            <path d="M12.25 14.361l11.258 6.5-1 1.732-11.258-6.5zM17.778 15.82L20.83 9.5l2.598 1.5-3.942 5.807z"/>
            <path stroke-linecap="square" d="M9.034 21.897l3-5.197 9.526 5.5-3 5.197c-2.086-1.508-3.726-2.607-4.92-3.296-1.193-.689-2.729-1.424-4.606-2.204z"/>
            <path d="M12.781 20.441l-1.5 2.598"/>
            <path stroke-linecap="round" d="M13.281 19.575l-1.5 2.598"/>
        </g>
    </g>
</svg>
