<?xml version="1.0" encoding="UTF-8"?>
<svg width="19px" height="23px" viewBox="0 0 19 23" version="1.1" xmlns="http://www.w3.org/2000/svg" xmlns:xlink="http://www.w3.org/1999/xlink">
    <!-- Generator: Sketch 53.2 (72643) - https://sketchapp.com -->
    <title>Кисть Copy</title>
    <desc>Created with Sketch.</desc>
    <g id="Page-1" stroke="none" stroke-width="1" fill="none" fill-rule="evenodd" stroke-linejoin="round">
        <g id="4_sf_meta_card_1920" transform="translate(-1152.000000, -234.000000)" stroke-width="0.75">
            <g id="Кисть-Copy" transform="translate(1150.000000, 231.000000)">
                <g id="Group-6" transform="translate(12.663193, 14.472449) rotate(30.000000) translate(-12.663193, -14.472449) translate(4.663193, 3.472449)">
                    <rect id="Rectangle" stroke="#BFA977" fill="#BFA977" x="-6.82121026e-13" y="9.97826087" width="15.4761905" height="2.34782609"></rect>
                    <polygon id="Rectangle-Copy-3" stroke="#BFA977" fill="#BFA977" transform="translate(7.738095, 4.108696) rotate(-90.000000) translate(-7.738095, -4.108696) " points="3.62939959 2.9380758 11.8467909 2.32298137 11.8467909 5.89440994 3.62939959 5.28706835"></polygon>
                    <path d="M1.1692386,19.5268708 L1.1692386,12.4833925 L14.2644767,12.4833925 L14.2644767,19.5268708 C11.2167122,19.2182696 8.87241154,19.0639691 7.2315746,19.0639691 C5.59073765,19.0639691 3.56995899,19.2182696 1.1692386,19.5268708 Z" id="Line-6-Copy-3" stroke="#BFA977" fill="#BFA977" stroke-linecap="square"></path>
                    <path d="M4.16666667,15.8478261 L4.16666667,20.2808498" id="Line-6" stroke="#FFFFFF" fill="#FFFFFF"></path>
                    <path d="M4.16666667,14.673913 L4.16666667,18.1956522" id="Line-6-Copy" stroke="#FFFFFF" fill="#FFFFFF" stroke-linecap="round"></path>
                </g>
            </g>
        </g>
    </g>
</svg>