<svg xmlns="http://www.w3.org/2000/svg" width="13" height="13" viewBox="0 0 13 13">
    <path fill="#153075" fill-rule="evenodd" d="M0 0h3.277v3.277H0V0zm4.861 0H8.14v3.277H4.86V0zm4.862 0H13v3.277H9.723V0zM0 4.861h3.277V8.14H0V4.86zm4.861 0H8.14V8.14H4.86V4.86zm4.862 0H13V8.14H9.723V4.86zM0 9.723h3.277V13H0V9.723zm4.861 0H8.14V13H4.86V9.723zm4.862 0H13V13H9.723V9.723z"/>
</svg>
