<svg xmlns="http://www.w3.org/2000/svg" width="120" height="33" viewBox="0 0 135 40">
    <g fill="#FFF" fill-rule="nonzero">
        <path d="M36.186 26.77v-4.365c1.235.095 1.684.67 1.684 2.185 0 1.515-.449 2.085-1.684 2.18zm-2.217 0c-1.245-.095-1.694-.685-1.694-2.18s.449-2.09 1.694-2.185v4.365zm5.086-4.7a5.343 5.343 0 0 0-2.76-.575h-.094c.065-.32.264-.525.827-.625l.498-.095v-.88a3.973 3.973 0 0 0-2.466.5 3.973 3.973 0 0 0-2.49-.5v.875l.154.025.363.07c.568.1.768.305.832.63h-.1a5.348 5.348 0 0 0-2.764.575 3.003 3.003 0 0 0-1.36 2.515c0 1.015.512 1.962 1.36 2.515a5.463 5.463 0 0 0 2.86.575c-.21.76-1.346.73-1.346.73v.82a4.048 4.048 0 0 0 2.491-.53c.745.435 1.609.62 2.466.53v-.815s-1.1-.055-1.345-.735a5.428 5.428 0 0 0 2.854-.575 3.003 3.003 0 0 0 1.36-2.515 3.003 3.003 0 0 0-1.36-2.515h.02zM70.997 19.885v3.635h1.116c.03-1.72.737-2.395 2.142-2.385v6.1c0 .735-.095.78-.857.92l-.498.095v1c.921.094 1.85-.09 2.665-.53.819.442 1.75.627 2.675.53v-1l-.498-.095c-.757-.14-.857-.185-.857-.92v-6.1c1.405 0 2.112.665 2.142 2.385h1.116v-3.635h-9.146zM66.882 21.01l.274-.05v-1.035a4.082 4.082 0 0 0-2.49.525 4.072 4.072 0 0 0-2.491-.525v1.035l.274.05c.742.14.837.185.837.92v1.84h-3.104v-1.835c0-.735.095-.78.837-.92l.274-.05V19.93a4.082 4.082 0 0 0-2.49.525 4.072 4.072 0 0 0-2.492-.525v1.035l.27.05c.742.14.836.185.836.92v5.31c0 .73-.094.78-.837.92l-.269.05v1.055a4.072 4.072 0 0 0 2.491-.5 4.082 4.082 0 0 0 2.491.5v-1.04l-.274-.05c-.742-.14-.837-.19-.837-.92v-2.175h3.104v2.175c0 .73-.095.78-.837.92l-.274.05v1.04a4.072 4.072 0 0 0 2.49-.5 4.082 4.082 0 0 0 2.491.5v-1.04l-.274-.05c-.742-.14-.837-.19-.837-.92v-5.33c0-.735.095-.78.837-.92M105.464 21.01l.274-.05v-1.035a4.087 4.087 0 0 0-2.49.525 4.062 4.062 0 0 0-2.491-.525v1.035l.274.05c.737.14.832.185.832.92v1.84h-3.099v-1.835c0-.735.1-.78.837-.92l.274-.05V19.93a4.087 4.087 0 0 0-2.49.525 4.062 4.062 0 0 0-2.491-.525v1.035l.274.05c.737.14.831.185.831.92v5.31c0 .73-.094.78-.831.92l-.274.05v1.055a4.062 4.062 0 0 0 2.49-.5 4.087 4.087 0 0 0 2.491.5v-1.04l-.274-.05c-.737-.14-.837-.19-.837-.92v-2.175h3.104v2.175c0 .73-.095.78-.832.92l-.274.05v1.04a4.062 4.062 0 0 0 2.49-.5 4.087 4.087 0 0 0 2.491.5v-1.04l-.274-.05c-.737-.14-.832-.19-.832-.92v-5.33c0-.735.095-.78.832-.92M86.076 25.04l1.116-3 .942 3h-2.058zm6.327 3.205c-.563 0-.757-.375-.997-1.05l-2.301-7.31H86.33l-2.55 7.25a1.695 1.695 0 0 1-1.405 1.135v1c.72.088 1.445-.1 2.032-.525a2.891 2.891 0 0 0 2.063.525v-1s-1.216 0-1.22-.5a1.28 1.28 0 0 1 .084-.41l.339-1.07h2.84l.363 1.155c.044.098.07.203.075.31 0 .24-.215.5-.842.5H87.7v1a4.345 4.345 0 0 0 2.59-.525c.778.435 1.67.618 2.556.525v-1l-.443-.01zM49.004 7.85V4.27h-9.246v1l.498.095c.757.14.857.185.857.92v5.31c0 .73-.1.78-.857.92l-.498.09v1.035h9.246v-3.595h-1.086c-.21 1.28-.499 1.65-.862 1.97-.364.32-.787.395-2.093.395h-1.22V9.72h.224c1.051 0 1.41.225 1.455 1.5h.996a3.566 3.566 0 0 0-.523-2.275 3.57 3.57 0 0 0 .523-2.275h-.996c-.045 1.265-.404 1.5-1.455 1.5h-.239V5.475h1.235c1.306 0 1.714.07 2.093.395.378.325.652.69.862 2l1.086-.02zM5.913 5.34a2.109 2.109 0 0 1 1.709.79c.398.45.538.875.647 1.83h1.365V4.145h-1.11l-.449.745a4.155 4.155 0 0 0-2.765-.915 4.559 4.559 0 0 0-3.397 1.34 4.81 4.81 0 0 0-1.415 3.62 4.95 4.95 0 0 0 1.445 3.73c.926.89 1.992 1.27 3.577 1.27a4.6 4.6 0 0 0 2.615-.67l.388.585h1.111v-3.82H8.14a2.862 2.862 0 0 1-.538 1.74 1.99 1.99 0 0 1-1.644.775c-1.54 0-2.411-1.31-2.411-3.62s.882-3.58 2.386-3.58M81.827 6.995c-.03-.438.116-.87.403-1.2.27-.23.593-.3 1.32-.3h1.111V8.74h-.996c-1.315 0-1.788-.425-1.838-1.295v-.45zm2.834 2.97v1.645c0 .73-.094.78-.851.92l-.499.09v1a4.757 4.757 0 0 0 2.68-.53c.823.435 1.755.62 2.68.53v-1l-.498-.09c-.757-.14-.856-.19-.856-.325v-5.31c0-1.33.1-1.375.856-1.5l.499-.095v-1H82.46c-1.236 0-1.993.165-2.526.575a2.389 2.389 0 0 0-.842 1.88V7.2c.135 1.15 1.335 2.125 2.73 2.155a1.621 1.621 0 0 0-1.264.549c-.32.362-.463.848-.39 1.326v.32a1.028 1.028 0 0 1-.996 1 .343.343 0 0 1-.304-.155c-.145-.195-.17-.34-.184-1.325h-.942c-.037.526.01 1.054.14 1.565.269.9.926 1.325 2.022 1.325a2.743 2.743 0 0 0 1.699-.565 3.073 3.073 0 0 0 1.155-2.135c.11-1.04.24-1.27 1.29-1.27l.613-.025zM31.882 8.77h-.867V5.505h.867c1.375 0 1.883.53 1.883 1.56v.34c-.065.885-.588 1.365-1.878 1.365m3.79-3.8c-.602-.5-1.389-.705-2.878-.705h-5.77V5.27l.499.095c.757.14.857.185.857.92v5.31c0 .73-.1.78-.857.92l-.498.09v1a4.911 4.911 0 0 0 2.765-.53 4.901 4.901 0 0 0 2.76.53v-1l-.499-.09c-.757-.14-1.02-.19-1.02-.92V9.97h1.777c1.495 0 2.207-.17 2.825-.65a2.684 2.684 0 0 0 .872-1.885V7.05a2.806 2.806 0 0 0-.827-2.105M70.922 8.77h-.871V5.505h.871c1.375 0 1.878.53 1.878 1.56v.34c-.06.885-.587 1.365-1.873 1.365m3.791-3.8c-.607-.5-1.39-.705-2.88-.705h-5.773V5.27l.498.095c.763.14.857.185.857.92v5.31c0 .73-.094.78-.857.92l-.498.09v1a4.921 4.921 0 0 0 2.77-.53 4.896 4.896 0 0 0 2.76.53v-1l-.498-.09c-.758-.14-1.027-.19-1.027-.92V9.97h1.784c1.494 0 2.202-.17 2.82-.65a2.71 2.71 0 0 0 .876-1.885V7.05a2.806 2.806 0 0 0-.827-2.105M23.18 7.85V4.27h-9.252v1l.523.095c.758.14.852.185.852.92v5.31c0 .73-.094.78-.852.92l-.523.09v1.035h9.251v-3.595h-1.086c-.21 1.28-.498 1.65-.867 1.97-.368.32-.787.395-2.087.395h-1.225V9.72h.239c1.056 0 1.415.225 1.454 1.5h.997a3.565 3.565 0 0 0-.528-2.275 3.57 3.57 0 0 0 .528-2.275h-.997c-.04 1.265-.398 1.5-1.454 1.5h-.24V5.475h1.226c1.3 0 1.709.07 2.087.395.379.325.658.69.867 2l1.086-.02zM102.66 5.375l.274-.05V4.27a4.097 4.097 0 0 0-2.491.5 4.122 4.122 0 0 0-2.49-.5v1.035l.273.05c.737.14.837.19.837.92V8.11H95.96V6.275c0-.73.094-.78.832-.92l.273-.05V4.27a4.097 4.097 0 0 0-2.49.5 4.122 4.122 0 0 0-2.491-.5v1.035l.274.05c.737.14.837.19.837.92v5.31c0 .735-.1.785-.837.92l-.274.05V13.6a4.087 4.087 0 0 0 2.49-.53 4.067 4.067 0 0 0 2.491.53v-1.045l-.273-.05c-.738-.135-.832-.185-.832-.92V9.41h3.103v2.175c0 .735-.1.785-.837.92l-.274.05V13.6a4.087 4.087 0 0 0 2.491-.53 4.067 4.067 0 0 0 2.49.53v-1.045l-.273-.05c-.737-.135-.832-.185-.832-.92v-5.29c0-.73.095-.78.832-.92M127.299 1.22a1.948 1.948 0 0 0 .672 1.58c.449.44 1.057.679 1.684.66a2.401 2.401 0 0 0 1.713-.66c.448-.398.685-.982.643-1.58a.712.712 0 0 0-.055-.275.762.762 0 0 0-1.494.28.756.756 0 0 0 .353.645 2.32 2.32 0 0 1-1.17.34c-.44.015-.876-.09-1.26-.305a.766.766 0 0 0-.35-1.445.757.757 0 0 0-.707.5.717.717 0 0 0-.06.275M133.939 6.21c0-.695.09-.74.787-.87l.26-.05v-1h-3.458l-3.537 6V6.195c0-.695.09-.79.792-.92l.254-.05v-1a3.874 3.874 0 0 0-2.361.5 3.874 3.874 0 0 0-2.361-.5v1l.259.05c.697.13.802.225.802.92v5.795c-.035.44-.185.5-.782.605l-.26.045v1h3.324l3.65-6.045v4.18c0 .695-.089.74-.786.87l-.26.05v1c.82.09 1.648-.086 2.362-.5.714.414 1.541.59 2.361.5v-1l-.259-.05c-.697-.13-.787-.175-.787-.87V6.21zM120.982 5.38l.498-.095v-1a4.896 4.896 0 0 0-2.76.525 4.886 4.886 0 0 0-2.755-.525v1l.499.095c.757.14.856.185.856.92v5.31c0 .73-.1.78-.856.92l-.499.09v1a4.886 4.886 0 0 0 2.755-.53 4.896 4.896 0 0 0 2.76.53v-1l-.498-.09c-.757-.14-.852-.19-.852-.92V6.3c0-.735.095-.78.852-.92M110.989 12.405c-.274-.025-.54-.1-.787-.22a.325.325 0 0 1-.18-.24v-2.8h.867c1.29 0 1.814.5 1.878 1.365v.34c0 1-.498 1.555-1.783 1.555m3.636-3.84c-.617-.5-1.335-.65-2.82-.65h-1.777V6.27c0-.73.264-.775.996-.915l.523-.095v-1a4.911 4.911 0 0 0-2.765.525 4.871 4.871 0 0 0-2.74-.515v1l.498.095c.758.14.857.185.857.915v5.315c0 .73-.1.78-.857.915l-.498.095v1c.867.05 2.202-.115 2.77-.5.593.42 1.216.56 2.336.535h.663c1.494 0 2.271-.195 2.874-.705a2.79 2.79 0 0 0 .827-2.105v-.38a2.72 2.72 0 0 0-.877-1.89M57.711 12.41h-.204a.661.661 0 0 1-.668-.665v-2.6h.872c1.3 0 1.819.5 1.863 1.42v.29c0 1.03-.498 1.555-1.868 1.555m4.613-1.87a2.71 2.71 0 0 0-.882-2c-.617-.5-1.33-.65-2.82-.65h-1.782V6.275c0-.365 0-.5.084-.605.23-.365 1.963-.21 2.287-.085.602.255.857.5 1.1 1.915h1.146V4.27h-8.598v1l.498.095c.758.14.852.185.852.92v5.31c0 .73-.094.78-.852.92l-.498.09v1.025h.513a4.51 4.51 0 0 0 2.157-.54 4.47 4.47 0 0 0 2.157.54h.942c1.494 0 2.286-.2 2.88-.695.551-.564.85-1.33.826-2.12v-.3M44.65 28.055h6.471v1.225H44.65zM46.323 23.485c0 1.885.32 2.56 1.276 2.63h.578c.946-.075 1.265-.76 1.265-2.58s-.314-2.5-1.255-2.6h-.618c-.917.085-1.246.77-1.246 2.55m5.904.05c0 2.28-1.46 3.76-3.831 3.9h-.992c-2.426-.135-3.86-1.59-3.86-3.965 0-2.27 1.494-3.74 3.905-3.86H48.297c2.435.11 3.93 1.585 3.93 3.925"/>
        <g>
            <path d="M31.982 37.505l-1.375-1.64h1.255l1.225 1.58v-1.58h1.071v1.58l1.221-1.58h1.255l-1.375 1.64 1.425 2.245h-1.27l-.887-1.465-.369.435v1.03h-1.07v-1.03l-.374-.435-.882 1.465h-1.275zM38.373 35.865h1.066v2.19l1.5-2.19h1v3.885h-1.06v-2.185l-1.5 2.185h-1.006zM43.584 39.72l.07-.83.248.025c.304 0 .593-.16.593-2.5v-.54h2.99v3.895h-1.072v-2.94h-.902v.15c0 2.37-.523 2.845-1.275 2.845a2.571 2.571 0 0 1-.637-.085M52.48 37.805a1.002 1.002 0 0 0-.996-1.045.995.995 0 0 0-.996 1.045 1.002 1.002 0 0 0 .996 1.05.995.995 0 0 0 .997-1.05m-3.074 0a2.096 2.096 0 0 1 1.241-1.986 2.082 2.082 0 0 1 2.3.413 2.1 2.1 0 0 1 .478 2.295 2.087 2.087 0 0 1-1.942 1.303 2.018 2.018 0 0 1-1.464-.573 2.034 2.034 0 0 1-.613-1.452M56.356 34.77l.588-.105c.07.2.18.335.384.335.204 0 .323-.135.393-.335l.588.105a.997.997 0 0 1-.976.801.997.997 0 0 1-.977-.801zm-.842 1.1h1.061v2.185l1.495-2.185h.996v3.9h-1.05v-2.185L56.52 39.77h-.997l-.01-3.9zM64.058 35.865h1.076v1.575l1.335-1.575h1.27l-1.464 1.67 1.514 2.215h-1.29l-.972-1.44-.393.44v1h-1.076zM72.143 37.805a1.002 1.002 0 0 0-.997-1.045.995.995 0 0 0-.996 1.045 1.002 1.002 0 0 0 .996 1.05.995.995 0 0 0 .997-1.05m-3.074 0a2.096 2.096 0 0 1 1.241-1.986 2.082 2.082 0 0 1 2.3.413 2.1 2.1 0 0 1 .478 2.295 2.087 2.087 0 0 1-1.942 1.303 2.023 2.023 0 0 1-1.462-.575 2.039 2.039 0 0 1-.615-1.45M75.182 35.865h1.13l.927 1.505.922-1.505h1.135v3.885H78.23v-2.23l-.991 1.52h-.025l-.981-1.51v2.22h-1.051zM81.364 35.865h3.467v3.885h-1.076v-2.94h-1.32v2.94h-1.071zM86.475 39.72l.07-.83.249.025c.303 0 .592-.16.592-2.5v-.54h2.99v3.895h-1.077v-2.94h-.901v.15c0 2.37-.499 2.845-1.27 2.845a2.621 2.621 0 0 1-.643-.085M92.433 35.865h3.113v.915h-2.052v.59h1.858v.85h-1.858v.615h2.077v.915h-3.138zM102.51 37.805c0-.54.217-1.056.601-1.432a1.989 1.989 0 0 1 1.442-.568 1.87 1.87 0 0 1 1.624.825l-.782.61a1.04 1.04 0 0 0-.852-.45 1.044 1.044 0 0 0-.917 1.038c0 .528.394.974.917 1.037a1.06 1.06 0 0 0 .872-.47l.807.575a2.033 2.033 0 0 1-2.273.789 2.044 2.044 0 0 1-1.439-1.934M97.504 35.865h1.07v1.575l1.336-1.575h1.27l-1.464 1.67 1.514 2.215h-1.285l-.977-1.44-.393.44v1h-1.071z"/>
        </g>
    </g>
</svg>
