<?xml version="1.0" encoding="UTF-8"?>
<svg width="9px" height="14px" viewBox="0 0 9 14" version="1.1" xmlns="http://www.w3.org/2000/svg" xmlns:xlink="http://www.w3.org/1999/xlink">
    <!-- Generator: Sketch 50 (54983) - http://www.bohemiancoding.com/sketch -->
    <title>Line 3</title>
    <desc>Created with Sketch.</desc>
    <defs></defs>
    <g id="Page-1" stroke="none" stroke-width="1" fill="none" fill-rule="evenodd" stroke-linecap="square" stroke-linejoin="round">
        <g id="5_Newslist_320" transform="translate(-64.000000, -2475.000000)" stroke="#000000" stroke-width="1.12">
            <g id="Пагинация" transform="translate(50.000000, 2462.000000)">
                <g id="arrows" transform="translate(110.000000, 20.000000) rotate(-270.000000) translate(-110.000000, -20.000000) translate(90.000000, -90.000000)">
                    <path d="M22.6666667,201.709976 L16.5555556,195.559165 L22.6666667,201.709976 L16.5555556,207.860787 L22.6666667,201.709976 Z M22.6666667,201.709976 L22.6918672,201.73534 L22.6666667,201.709976 L22.6918672,201.684611 L22.6666667,201.709976 Z" id="Line-3" transform="translate(19.888889, 201.709976) rotate(90.000000) translate(-19.888889, -201.709976) "></path>
                </g>
            </g>
        </g>
    </g>
</svg>