<svg xmlns="http://www.w3.org/2000/svg" width="14" height="18" viewBox="0 0 14 18">
    <path fill="#9F9F9F" fill-rule="nonzero" d="M6.193 17.14l4.936-5.273a6.443 6.443 0 0 0 1.714-4.412c0-3.443-2.622-6.243-5.845-6.243-3.222 0-5.843 2.8-5.843 6.243 0 1.717.655 3.28 1.704 4.4a.643.643 0 0 1 .174.439c0 .334-.254.606-.567.606a.55.55 0 0 1-.407-.182C.803 11.377.022 9.51.022 7.455.022 3.338 3.146 0 7 0c3.854 0 6.978 3.338 6.978 7.455 0 2.056-.781 3.919-2.041 5.268L6.997 18l-.804-.86zm1.922-8.215h.404l-.393-1.203-1.13 1.984L5.87 7.722l-.393 1.203h.404v.725H3.184v-.725h.523l1.787-4.821 1.503 2.815 1.505-2.815 1.784 4.82h.525v.726H8.115v-.725z"/>
</svg>
