<svg xmlns="http://www.w3.org/2000/svg" xmlns:xlink="http://www.w3.org/1999/xlink" width="26" height="28" viewBox="0 0 26 28">
    <defs>
        <path id="a" d="M22.576 44.6c0 .954.113 1.892.335 2.8h22.178c.222-.908.335-1.846.335-2.8 0-3.968-1.978-7.585-5.165-9.706A8.205 8.205 0 0 1 34 37.8a8.205 8.205 0 0 1-6.259-2.906c-3.187 2.121-5.165 5.738-5.165 9.706zm5.988-11.227C29.816 35.135 31.82 36.2 34 36.2s4.184-1.065 5.436-2.827l.415-.585.616.359C44.475 35.485 47 39.819 47 44.6c0 1.312-.189 2.6-.556 3.832l-.17.568H21.726l-.17-.568A13.387 13.387 0 0 1 21 44.6c0-4.78 2.525-9.115 6.533-11.453l.616-.36.415.586zM34 37.8c-4.569 0-8.273-3.76-8.273-8.4 0-4.64 3.704-8.4 8.273-8.4 4.569 0 8.273 3.76 8.273 8.4 0 4.64-3.704 8.4-8.273 8.4zm0-1.6c3.699 0 6.697-3.044 6.697-6.8S37.699 22.6 34 22.6s-6.697 3.044-6.697 6.8 2.998 6.8 6.697 6.8z"/>
    </defs>
    <use fill="#B59B61" fill-rule="nonzero" transform="translate(-21 -21)" xlink:href="#a"/>
</svg>
