<svg xmlns="http://www.w3.org/2000/svg" width="18" height="16" viewBox="0 0 18 16">
    <path fill="#B59B61" fill-rule="nonzero" d="M5.6 0C4.282 0 3.2 1.11 3.2 2.461c0 1.352 1.082 2.462 2.4 2.462 1.111 0 2.05-.79 2.319-1.846H14.7c1.174 0 2.1.95 2.1 2.153 0 1.204-.926 2.154-2.1 2.154H3.3c-1.818 0-3.3 1.52-3.3 3.385 0 1.864 1.482 3.384 3.3 3.384h3.85l-.775.795a.628.628 0 0 0 0 .871.59.59 0 0 0 .85 0l1.8-1.846a.623.623 0 0 0 0-.871l-1.8-1.846a.593.593 0 0 0-.431-.186.6.6 0 0 0-.558.384.627.627 0 0 0 .139.673l.775.795H3.3c-1.174 0-2.1-.95-2.1-2.153 0-1.204.926-2.154 2.1-2.154h11.4c1.818 0 3.3-1.52 3.3-3.385 0-1.864-1.482-3.384-3.3-3.384H7.919C7.649.789 6.71 0 5.6 0zm0 1.23c.67 0 1.2.544 1.2 1.231s-.53 1.231-1.2 1.231c-.67 0-1.2-.544-1.2-1.23 0-.688.53-1.231 1.2-1.231zm6.8 9.846c-1.318 0-2.4 1.11-2.4 2.462s1.082 2.46 2.4 2.46c1.318 0 2.4-1.108 2.4-2.46 0-1.353-1.082-2.462-2.4-2.462zm0 1.23c.67 0 1.2.545 1.2 1.232 0 .687-.53 1.23-1.2 1.23-.67 0-1.2-.543-1.2-1.23 0-.687.53-1.231 1.2-1.231z"/>
</svg>
