<?xml version="1.0" encoding="utf-8"?>
<!-- Generator: Adobe Illustrator 23.0.3, SVG Export Plug-In . SVG Version: 6.00 Build 0)  -->
<svg version="1.1" id="Слой_1" xmlns="http://www.w3.org/2000/svg" xmlns:xlink="http://www.w3.org/1999/xlink" x="0px" y="0px"
	 width="250px" height="27px" viewBox="0 0 250 27" enable-background="new 0 0 250 27" xml:space="preserve">
<path fill="#ED1D24" d="M51.2,24c-0.2,0-0.4-0.1-0.6-0.1h-0.4l-3.7,0.2c-1.8,0-3.4-0.2-4.7-0.6c-1.6-0.4-3-1.2-4.2-2.2
	c-1.3-1.1-2.3-2.4-2.9-3.9c-0.7-1.5-1-3.1-1-4.8c0-1.4,0.3-2.7,0.8-4s1.3-2.3,2.3-3.1c1-0.8,2.2-1.4,3.5-1.8s2.7-0.6,4.1-0.6
	l3.4,0.3l1,0.1c0.3,0,0.6,0,0.7-0.1c0.2-0.1,0.3-0.3,0.5-0.5l1.4,5.8l-0.5,0.1c-0.5-1.3-1.4-2.2-2.7-3c-1.2-0.7-2.6-1.1-4-1.1
	c-1.1,0-2,0.2-2.8,0.5S39.9,6,39.2,6.8c-0.6,0.8-1.1,1.6-1.5,2.6c-0.3,1-0.5,2-0.5,3c0,2.8,0.8,5.1,2.5,7c1.8,2,4,3.1,6.7,3.1
	c1.5,0,2.9-0.4,4-1.3c1.1-0.8,2-2,2.7-3.5l0.3,0.1L51.2,24z"/>
<path fill="#ED1D24" d="M65.9,22.5c2,0,3.7-0.8,4.9-2.4c1.1-1.4,1.7-3.2,1.7-5.3c0-2.7-0.8-5.1-2.4-7.1s-3.4-3-5.6-3
	c-2.1,0-3.7,0.8-4.8,2.4c-1.1,1.5-1.6,3.3-1.6,5.4c0,2.5,0.7,4.7,2,6.7C61.6,21.4,63.5,22.5,65.9,22.5 M57.7,21.3
	c-1-1-1.8-2.1-2.4-3.5c-0.6-1.3-0.9-2.7-0.9-4.1c0-3,1-5.5,3.1-7.5s4.6-3,7.7-3c3.1,0,5.7,1,7.8,3c2.1,2,3.1,4.6,3.1,7.7
	c0,2.9-1.1,5.4-3.3,7.3c-2.1,1.9-4.7,2.8-7.6,2.8c-1.4,0-2.8-0.2-4.1-0.7C59.9,23,58.7,22.3,57.7,21.3"/>
<path fill="#ED1D24" d="M83.9,19.9c0,1,0.1,1.7,0.4,2s0.9,0.4,2,0.4c0.9,0,1.8-0.1,2.7-0.2c0.8-0.1,1.6-0.4,2.2-0.8s1.2-1,1.5-1.7
	c0.4-0.8,0.6-1.5,0.6-2.3c0-1.3-0.5-2.5-1.5-3.6c-0.8-1-1.9-1.7-3.3-2.3l-4.6,1.7C83.9,13.1,83.9,19.9,83.9,19.9z M83.9,11.6
	c1.7-0.5,3.2-1.1,4.3-1.6C90.1,9,91,7.9,91,6.8c0-0.8-0.5-1.3-1.4-1.6C89.1,5.1,88.3,5,87.2,5c-0.8,0-1.4,0-1.9,0.1
	s-0.9,0.2-1.1,0.5C84.1,5.7,84,6,84,6.4s-0.1,0.8-0.1,1.1C83.9,7.5,83.9,11.6,83.9,11.6z M89.8,3.6c1.4,0,2.4,0.1,3.1,0.3
	c1.2,0.4,1.8,1.1,1.8,2.3c0,1-0.5,2-1.6,2.8c-0.3,0.3-1.3,0.8-3,1.7c1.9,0.6,3.4,1.4,4.5,2.5c1.4,1.3,2.1,2.8,2.1,4.5
	c0,2.6-1.2,4.3-3.5,5.2c-1.1,0.4-2.3,0.7-3.6,0.7c-1.3,0.1-2.5,0.1-3.4,0.1h-7.7v-0.3c0.7-0.1,1.2-0.4,1.5-0.8s0.5-1.3,0.5-2.7V7.6
	c0-1.4-0.2-2.4-0.5-2.9s-0.8-0.8-1.5-0.9V3.5L89.8,3.6C89.8,3.5,89.8,3.6,89.8,3.6z"/>
<path fill="#ED1D24" d="M100.7,7.6c0-1.4-0.2-2.4-0.5-2.9s-0.8-0.8-1.5-0.9V3.5h7.3v0.3c-0.7,0.1-1.2,0.3-1.5,0.8S104,6,104,7.4v3.7
	l2.6-2.1c1.4-1.2,2.4-2.1,3-2.7c0.7-0.8,1.1-1.3,1.1-1.7c0-0.3-0.1-0.4-0.2-0.5s-0.3-0.2-0.6-0.2V3.6h7.4v0.3c-1,0-2.1,0.3-3.1,0.9
	c-0.3,0.2-1.1,0.8-2.6,2l-2.3,1.9c1.5,1.4,2.8,3,3.9,4.8c1.1,1.7,2,3.5,2.8,5.6l0.6,1.4c0.4,1,0.7,1.6,0.8,1.8
	c0.4,0.7,0.9,1,1.5,1.1v0.3h-6.7v-0.3c0.7-0.1,1.1-0.5,1.1-1.2c0-0.8-0.3-1.8-0.8-3.1c-0.4-0.9-0.9-1.9-1.5-2.9s-1.2-1.9-1.9-2.8
	c-0.6-0.9-1.4-1.8-2.3-2.7l-2.9,2.3v6.7c0,1.2,0.1,2,0.2,2.4c0.3,0.8,0.9,1.2,1.7,1.3v0.3h-7.3v-0.3c0.9-0.1,1.4-0.6,1.7-1.3
	c0.2-0.5,0.3-1.2,0.3-2.3V7.6H100.7z"/>
<path fill="#ED1D24" d="M130.8,22.5c2,0,3.7-0.8,4.9-2.4c1.1-1.4,1.7-3.2,1.7-5.3c0-2.7-0.8-5.1-2.4-7.1c-1.6-2-3.4-3-5.6-3
	c-2.1,0-3.7,0.8-4.8,2.4c-1.1,1.5-1.6,3.3-1.6,5.4c0,2.5,0.7,4.7,2,6.7C126.4,21.4,128.4,22.5,130.8,22.5 M122.5,21.3
	c-1-1-1.8-2.1-2.4-3.5c-0.6-1.3-0.9-2.7-0.9-4.1c0-3,1-5.5,3.1-7.5s4.6-3,7.7-3s5.7,1,7.8,3s3.1,4.6,3.1,7.7c0,2.9-1.1,5.4-3.3,7.3
	c-2.1,1.9-4.7,2.8-7.6,2.8c-1.4,0-2.8-0.2-4.1-0.7C124.7,23,123.6,22.3,122.5,21.3"/>
<path fill="#ED1D24" d="M147.4,5.7v14c0,1.2,0.1,2,0.2,2.4c0.3,0.8,0.9,1.2,1.7,1.3v0.3h-6v-0.3c0.9-0.1,1.4-0.5,1.7-1.2
	c0.2-0.4,0.3-1.2,0.3-2.3V7.6c0-1.4-0.2-2.4-0.5-2.9s-0.8-0.8-1.5-0.9V3.5h7.7v0.3c-0.3,0.1-0.5,0.3-0.5,0.6c0,0.3,0.1,0.6,0.4,1.1
	l3.5,6.4l3.5-5.6c0.5-0.9,0.8-1.5,0.8-1.9c0-0.3-0.2-0.6-0.5-0.6V3.5h7.3v0.3c-0.9,0.1-1.4,0.6-1.7,1.3c-0.2,0.4-0.3,1.2-0.3,2.3
	v12.3c0,1.4,0.2,2.4,0.5,2.9s0.8,0.8,1.5,0.9v0.3h-7.3v-0.3c0.9-0.1,1.4-0.5,1.7-1.2c0.2-0.5,0.3-1.2,0.3-2.3V5.7l-6.7,10.9
	L147.4,5.7z"/>
<path fill="#00468E" d="M173.4,20c0,1.2,0.1,1.8,0.3,2s1,0.3,2.3,0.3c1.9,0,3.4-0.4,4.5-1.2c1.1-0.8,1.6-1.9,1.6-3.2
	c0-1.6-0.7-3-2-4c-1.5-1.3-3.8-1.9-6.8-1.9L173.4,20L173.4,20z M170,7.4c0-1.1-0.1-1.8-0.2-2.2c-0.3-0.7-0.9-1.2-1.7-1.3V3.6h12.7
	h0.6c0.3,0,0.6,0,0.8-0.1s0.3-0.2,0.5-0.3l1.5,6l-0.3,0.1c-0.6-1.5-1.4-2.5-2.6-3.2c-1.2-0.7-2.7-1-4.6-1c-1.5,0-2.4,0.1-2.7,0.2
	s-0.5,0.4-0.5,1v0.6v0.7v3c3.9,0,7,0.8,9.2,2.3c2,1.4,3,3.1,3,5.1c0,1.8-0.7,3.3-2,4.2c-1.4,1-3.6,1.6-6.5,1.6h-9.1v-0.3
	c0.7-0.1,1.2-0.4,1.5-0.8s0.5-1.3,0.5-2.7L170,7.4L170,7.4z"/>
<path fill="#00468E" d="M196.1,5.9l-2.8,7.3c1.2,0,2.3,0.2,3.4,0.6c1.1,0.4,2,1,2.8,1.8L196.1,5.9z M191.1,19.6
	c-0.2,0.5-0.3,0.9-0.4,1.2c-0.1,0.3-0.1,0.7-0.1,1c0,0.5,0.2,0.9,0.5,1.2c0.3,0.3,0.7,0.5,1.2,0.5v0.3h-6.2v-0.3
	c0.4-0.1,0.7-0.2,0.9-0.3c0.2-0.1,0.5-0.4,0.7-0.7c0.2-0.3,0.5-0.8,0.7-1.3c0.2-0.4,0.4-0.9,0.6-1.5l4.9-13c0.2-0.4,0.3-0.8,0.4-1
	c0.1-0.2,0.1-0.5,0.1-0.8s-0.1-0.5-0.3-0.6c-0.2-0.2-0.4-0.3-0.7-0.3V3.7h6.8V4c-0.6,0.2-0.9,0.5-0.9,1.1c0,0.2,0,0.3,0.1,0.6
	c0.1,0.2,0.1,0.4,0.2,0.6l5.2,15c0.1,0.4,0.3,0.7,0.5,1.1c0.3,0.6,0.8,1,1.4,1.1v0.3h-6.9v-0.3c0.5-0.1,0.9-0.4,1.1-0.7
	c0.2-0.4,0.3-0.8,0.3-1.4c0-1.5-0.8-2.9-2.3-4.3c-1.7-1.5-3.7-2.2-6-2.2L191.1,19.6z"/>
<path fill="#00468E" d="M213.2,19.7c0,1.2,0.1,2,0.2,2.4c0.3,0.8,0.9,1.2,1.7,1.3v0.3h-7.3v-0.3c0.7-0.1,1.2-0.4,1.5-0.8
	s0.5-1.3,0.5-2.7V7.6c0-1.4-0.1-2.4-0.5-2.9c-0.3-0.5-0.8-0.8-1.5-0.9V3.5h7.3v0.3c-0.9,0.1-1.4,0.5-1.7,1.2
	c-0.2,0.5-0.3,1.2-0.3,2.3v1.8h9.1V7.5c0-1.2-0.1-2.1-0.2-2.5c-0.3-0.8-0.8-1.2-1.7-1.2V3.5h7.3v0.3c-0.9,0.1-1.4,0.5-1.7,1.2
	c-0.2,0.5-0.3,1.2-0.3,2.3v12.3c0,1.2,0.1,2,0.2,2.4c0.3,0.8,0.9,1.2,1.7,1.3v0.3h-7.3v-0.3c0.9,0,1.4-0.4,1.7-1.1
	c0.2-0.5,0.3-1.3,0.3-2.4v-9.3h-9.1v9.2H213.2z"/>
<path fill="#00468E" d="M231.8,7.6c0-1.4-0.2-2.4-0.5-2.9s-0.8-0.8-1.5-0.9V3.5h7.3v0.3c-0.7,0.1-1.2,0.3-1.5,0.8s-0.5,1.4-0.5,2.8
	v3.7l2.6-2.1c1.4-1.2,2.4-2.1,3-2.7c0.7-0.8,1.1-1.3,1.1-1.7c0-0.3-0.1-0.4-0.2-0.5c-0.1-0.1-0.3-0.2-0.6-0.2V3.6h7.4v0.3
	c-1,0-2.1,0.3-3.1,0.9c-0.3,0.2-1.1,0.8-2.6,2l-2.3,1.9c1.5,1.4,2.8,3,3.9,4.8c1.1,1.7,2,3.5,2.8,5.6l0.6,1.4c0.4,1,0.7,1.6,0.8,1.8
	c0.4,0.7,0.9,1,1.5,1.1v0.3h-6.7v-0.3c0.7-0.1,1.1-0.5,1.1-1.2c0-0.8-0.3-1.8-0.8-3.1c-0.4-0.9-0.9-1.9-1.5-2.9s-1.2-1.9-1.8-2.8
	c-0.7-0.9-1.4-1.8-2.3-2.7l-2.9,2.3v6.7c0,1.2,0.1,2,0.2,2.4c0.3,0.8,0.9,1.2,1.7,1.3v0.3h-7.3v-0.3c0.9-0.1,1.4-0.6,1.7-1.3
	c0.2-0.5,0.3-1.2,0.3-2.3V7.6H231.8z"/>
<path fill="#00468E" d="M16.2,0.3v7h-2.7c-3.4,0-6.2,2.8-6.2,6.2c0,3.4,2.8,6.2,6.2,6.2h2.7v7C22.4,25.5,27,20.1,27,13.5
	C27,7,22.4,1.6,16.2,0.3"/>
<path fill="#ED1D24" d="M13.5,21.9c-4.6,0-8.4-3.7-8.4-8.4c0-4.6,3.7-8.4,8.4-8.4H14V0c-0.2,0-0.4,0-0.5,0C6.1,0,0,6,0,13.5
	C0,20.9,6,27,13.5,27c0.2,0,0.4,0,0.5,0v-5.1H13.5z"/>
</svg>
