<?xml version="1.0" encoding="utf-8"?>
<!-- Generator: Adobe Illustrator 22.1.0, SVG Export Plug-In . SVG Version: 6.00 Build 0)  -->
<svg version="1.1" id="Слой_1" xmlns="http://www.w3.org/2000/svg" xmlns:xlink="http://www.w3.org/1999/xlink" x="0px" y="0px"
	 width="320px" height="478px" viewBox="0 0 320 478" style="enable-background:new 0 0 320 478;" xml:space="preserve">
<style type="text/css">
	.st0{fill:#FFFFFF;}
	.st1{filter:url(#Adobe_OpacityMaskFilter);}
	.st2{opacity:0.5;mask:url(#mask-2_1_);}
	.st3{fill:#FFFFFF;stroke:#153075;stroke-width:1.1;}
</style>
<title>Group 2 Copy</title>
<desc>Created with Sketch.</desc>
<g id="Mask">
	<rect id="path-1_1_" x="-1" class="st0" width="322" height="478"/>
</g>
<defs>
	<filter id="Adobe_OpacityMaskFilter" filterUnits="userSpaceOnUse" x="-191.4" y="-224.2" width="699.8" height="356.8">
		<feColorMatrix  type="matrix" values="1 0 0 0 0  0 1 0 0 0  0 0 1 0 0  0 0 0 1 0"/>
	</filter>
</defs>
<mask maskUnits="userSpaceOnUse" x="-191.4" y="-224.2" width="699.8" height="356.8" id="mask-2_1_">
	<g class="st1">
		<rect id="path-1_2_" x="-1" class="st0" width="322" height="478"/>
	</g>
</mask>
<g class="st2">
	
		<g transform="translate(118.000000, -83.000000) scale(1, -1) rotate(-360.000000) translate(-118.000000, 83.000000) translate(-438.000000, -298.000000)">
		<g id="Group">
			<g id="Group-Copy-11" transform="translate(331.504219, 0.000000)">
				<ellipse id="Oval" class="st3" cx="140.2" cy="141.3" rx="141.2" ry="-141.3"/>
				<ellipse id="Oval-Copy" class="st3" cx="140.2" cy="141.3" rx="129" ry="-129.2"/>
				<ellipse id="Oval-Copy-2" class="st3" cx="140.9" cy="142.1" rx="117.7" ry="-117.8"/>
				<ellipse id="Oval-Copy-3" class="st3" cx="140.2" cy="141.3" rx="104.1" ry="-104.2"/>
				<ellipse id="Oval-Copy-4" class="st3" cx="140.2" cy="141.3" rx="91.2" ry="-91.3"/>
				<ellipse id="Oval-Copy-5" class="st3" cx="140.2" cy="141.3" rx="78.3" ry="-78.4"/>
				<ellipse id="Oval-Copy-6" class="st3" cx="140.5" cy="141.7" rx="66.6" ry="-66.7"/>
				<ellipse id="Oval-Copy-7" class="st3" cx="140.5" cy="141.7" rx="56.8" ry="-56.8"/>
			</g>
			<g id="Group-Copy-17" transform="translate(578.997094, 0.000000)">
				<ellipse id="Oval_1_" class="st3" cx="140.2" cy="141.3" rx="141.2" ry="-141.3"/>
				<ellipse id="Oval-Copy_1_" class="st3" cx="140.2" cy="141.3" rx="129" ry="-129.2"/>
				<ellipse id="Oval-Copy-2_1_" class="st3" cx="140.9" cy="142.1" rx="117.7" ry="-117.8"/>
				<ellipse id="Oval-Copy-3_1_" class="st3" cx="140.2" cy="141.3" rx="104.1" ry="-104.2"/>
				<ellipse id="Oval-Copy-4_1_" class="st3" cx="140.2" cy="141.3" rx="91.2" ry="-91.3"/>
				<ellipse id="Oval-Copy-5_1_" class="st3" cx="140.2" cy="141.3" rx="78.3" ry="-78.4"/>
				<ellipse id="Oval-Copy-6_1_" class="st3" cx="140.5" cy="141.7" rx="66.6" ry="-66.7"/>
				<ellipse id="Oval-Copy-7_1_" class="st3" cx="140.5" cy="141.7" rx="56.8" ry="-56.8"/>
			</g>
			<g id="Group-Copy-6" transform="translate(248.249734, 16.671275)">
				<ellipse id="Oval_2_" class="st3" cx="100.4" cy="101.5" rx="101.4" ry="-101.5"/>
			</g>
			<g id="Group-Copy-14" transform="translate(494.985751, 16.671275)">
				<ellipse id="Oval_3_" class="st3" cx="100.4" cy="101.5" rx="101.4" ry="-101.5"/>
				<ellipse id="Oval-Copy_2_" class="st3" cx="100.4" cy="101.5" rx="89.3" ry="-89.4"/>
				<ellipse id="Oval-Copy-2_2_" class="st3" cx="100.4" cy="101.5" rx="77.2" ry="-77.3"/>
				<ellipse id="Oval-Copy-3_2_" class="st3" cx="100.4" cy="101.5" rx="65.1" ry="-65.2"/>
				<ellipse id="Oval-Copy-4_2_" class="st3" cx="100.4" cy="101.5" rx="53" ry="-53"/>
				<ellipse id="Oval-Copy-5_2_" class="st3" cx="100.4" cy="101.5" rx="40.9" ry="-40.9"/>
			</g>
			<g id="Group-Copy-20" transform="translate(743.992344, 16.671275)">
				<ellipse id="Oval_4_" class="st3" cx="100.4" cy="101.5" rx="101.4" ry="-101.5"/>
				<ellipse id="Oval-Copy_3_" class="st3" cx="100.4" cy="101.5" rx="89.3" ry="-89.4"/>
			</g>
		</g>
		<g id="Group-Copy-2" transform="translate(0.000000, 73.000000)">
			<g id="Group-Copy-10" transform="translate(331.411043, 0.000000)">
				<ellipse id="Oval_5_" class="st3" cx="140.1" cy="141.3" rx="141.1" ry="-141.3"/>
				<ellipse id="Oval-Copy_4_" class="st3" cx="140.1" cy="141.3" rx="129" ry="-129.2"/>
				<ellipse id="Oval-Copy-2_3_" class="st3" cx="140.9" cy="142.1" rx="117.7" ry="-117.8"/>
				<ellipse id="Oval-Copy-3_3_" class="st3" cx="140.1" cy="141.3" rx="104" ry="-104.2"/>
				<ellipse id="Oval-Copy-4_3_" class="st3" cx="140.1" cy="141.3" rx="91.2" ry="-91.3"/>
			</g>
			<g id="Group-Copy-16" transform="translate(578.834356, 0.000000)">
				<ellipse id="Oval_6_" class="st3" cx="140.1" cy="141.3" rx="141.1" ry="-141.3"/>
				<ellipse id="Oval-Copy_5_" class="st3" cx="140.1" cy="141.3" rx="129" ry="-129.2"/>
				<ellipse id="Oval-Copy-2_4_" class="st3" cx="140.9" cy="142.1" rx="117.7" ry="-117.8"/>
				<ellipse id="Oval-Copy-3_4_" class="st3" cx="140.1" cy="141.3" rx="104" ry="-104.2"/>
				<ellipse id="Oval-Copy-4_4_" class="st3" cx="140.1" cy="141.3" rx="91.2" ry="-91.3"/>
			</g>
			<g id="Group-Copy-6_1_" transform="translate(248.179959, 16.671275)">
				<ellipse id="Oval_7_" class="st3" cx="100.4" cy="101.5" rx="101.4" ry="-101.5"/>
			</g>
			<g id="Group-Copy-13" transform="translate(494.846626, 16.671275)">
				<ellipse id="Oval_8_" class="st3" cx="100.4" cy="101.5" rx="101.4" ry="-101.5"/>
				<ellipse id="Oval-Copy_6_" class="st3" cx="100.4" cy="101.5" rx="89.3" ry="-89.4"/>
				<ellipse id="Oval-Copy-2_5_" class="st3" cx="100.4" cy="101.5" rx="77.2" ry="-77.3"/>
				<ellipse id="Oval-Copy-3_5_" class="st3" cx="100.4" cy="101.5" rx="65.1" ry="-65.2"/>
			</g>
			<g id="Group-Copy-19" transform="translate(743.783231, 16.671275)">
				<ellipse id="Oval_9_" class="st3" cx="100.4" cy="101.5" rx="101.4" ry="-101.5"/>
				<ellipse id="Oval-Copy_7_" class="st3" cx="100.4" cy="101.5" rx="89.3" ry="-89.4"/>
			</g>
		</g>
	</g>
</g>
</svg>
