<?xml version="1.0" encoding="UTF-8"?>
<svg width="944px" height="168px" viewBox="0 0 944 168" version="1.1" xmlns="http://www.w3.org/2000/svg" xmlns:xlink="http://www.w3.org/1999/xlink">
    <!-- Generator: Sketch 50 (54983) - http://www.bohemiancoding.com/sketch -->
    <title>Кнопка</title>
    <desc>Created with Sketch.</desc>
    <defs>
        <rect id="path-1" x="0" y="0" width="944" height="167.778587"></rect>
        <rect id="path-3" x="0" y="0" width="1280" height="226"></rect>
    </defs>
    <g id="Page-1" stroke="none" stroke-width="1" fill="none" fill-rule="evenodd">
        <g id="8_Single_news_img_1024" transform="translate(-40.000000, -1073.000000)">
            <g id="Кнопка" transform="translate(40.000000, 1073.000000)">
                <g id="Pattern">
                    <mask id="mask-2" fill="white">
                        <use xlink:href="#path-1"></use>
                    </mask>
                    <use id="Mask" fill="#FFFFFF" xlink:href="#path-1"></use>
                    <g mask="url(#mask-2)">
                        <g transform="translate(472.000000, 71.000000) scale(1, -1) translate(-472.000000, -71.000000) translate(-168.000000, -42.000000)">
                            <mask id="mask-4" fill="white">
                                <use xlink:href="#path-3"></use>
                            </mask>
                            <use id="Mask" stroke="none" fill="#FFFFFF" fill-rule="evenodd" xlink:href="#path-3"></use>
                            <g id="Group-2-Copy" opacity="0.200000003" stroke="none" stroke-width="1" fill="none" fill-rule="evenodd" mask="url(#mask-4)">
                                <g transform="translate(680.500000, -103.500000) scale(1, -1) translate(-680.500000, 103.500000) translate(-127.000000, -416.000000)">
                                    <g id="Group">
                                        <g id="Group-Copy-8" transform="translate(121.022495, 0.000000)" fill="#FFFFFF" stroke="#B59B61" stroke-width="1.1">
                                            <ellipse id="Oval" cx="205.188139" cy="205.248677" rx="205.188139" ry="205.248677"></ellipse>
                                            <ellipse id="Oval-Copy" cx="205.188139" cy="205.248677" rx="187.584867" ry="187.640212"></ellipse>
                                            <ellipse id="Oval-Copy-2" cx="206.288344" cy="206.349206" rx="171.0818" ry="171.132275"></ellipse>
                                            <ellipse id="Oval-Copy-3" cx="205.188139" cy="205.248677" rx="151.278119" ry="151.322751"></ellipse>
                                            <ellipse id="Oval-Copy-4" cx="205.188139" cy="205.248677" rx="132.574642" ry="132.613757"></ellipse>
                                            <ellipse id="Oval-Copy-5" cx="205.188139" cy="205.248677" rx="113.871166" ry="113.904762"></ellipse>
                                            <ellipse id="Oval-Copy-6" cx="205.738241" cy="205.798942" rx="96.8179959" ry="96.8465608"></ellipse>
                                            <ellipse id="Oval-Copy-7" cx="205.738241" cy="205.798942" rx="82.5153374" ry="82.5396825"></ellipse>
                                        </g>
                                        <g id="Group-Copy-11" transform="translate(481.889571, 0.000000)" fill="#FFFFFF" stroke="#B59B61" stroke-width="1.1">
                                            <ellipse id="Oval" cx="205.188139" cy="205.248677" rx="205.188139" ry="205.248677"></ellipse>
                                            <ellipse id="Oval-Copy" cx="205.188139" cy="205.248677" rx="187.584867" ry="187.640212"></ellipse>
                                            <ellipse id="Oval-Copy-2" cx="206.288344" cy="206.349206" rx="171.0818" ry="171.132275"></ellipse>
                                            <ellipse id="Oval-Copy-3" cx="205.188139" cy="205.248677" rx="151.278119" ry="151.322751"></ellipse>
                                            <ellipse id="Oval-Copy-4" cx="205.188139" cy="205.248677" rx="132.574642" ry="132.613757"></ellipse>
                                            <ellipse id="Oval-Copy-5" cx="205.188139" cy="205.248677" rx="113.871166" ry="113.904762"></ellipse>
                                            <ellipse id="Oval-Copy-6" cx="205.738241" cy="205.798942" rx="96.8179959" ry="96.8465608"></ellipse>
                                            <ellipse id="Oval-Copy-7" cx="205.738241" cy="205.798942" rx="82.5153374" ry="82.5396825"></ellipse>
                                        </g>
                                        <g id="Group-Copy-17" transform="translate(841.656442, 0.000000)" fill="#FFFFFF" stroke="#B59B61" stroke-width="1.1">
                                            <ellipse id="Oval" cx="205.188139" cy="205.248677" rx="205.188139" ry="205.248677"></ellipse>
                                            <ellipse id="Oval-Copy" cx="205.188139" cy="205.248677" rx="187.584867" ry="187.640212"></ellipse>
                                            <ellipse id="Oval-Copy-2" cx="206.288344" cy="206.349206" rx="171.0818" ry="171.132275"></ellipse>
                                            <ellipse id="Oval-Copy-3" cx="205.188139" cy="205.248677" rx="151.278119" ry="151.322751"></ellipse>
                                            <ellipse id="Oval-Copy-4" cx="205.188139" cy="205.248677" rx="132.574642" ry="132.613757"></ellipse>
                                            <ellipse id="Oval-Copy-5" cx="205.188139" cy="205.248677" rx="113.871166" ry="113.904762"></ellipse>
                                            <ellipse id="Oval-Copy-6" cx="205.738241" cy="205.798942" rx="96.8179959" ry="96.8465608"></ellipse>
                                            <ellipse id="Oval-Copy-7" cx="205.738241" cy="205.798942" rx="82.5153374" ry="82.5396825"></ellipse>
                                        </g>
                                        <g id="Group-Copy-23" transform="translate(1203.623722, 0.000000)" fill="#FFFFFF" stroke="#B59B61" stroke-width="1.1">
                                            <ellipse id="Oval" cx="205.188139" cy="205.248677" rx="205.188139" ry="205.248677"></ellipse>
                                            <ellipse id="Oval-Copy" cx="205.188139" cy="205.248677" rx="187.584867" ry="187.640212"></ellipse>
                                            <ellipse id="Oval-Copy-2" cx="206.288344" cy="206.349206" rx="171.0818" ry="171.132275"></ellipse>
                                        </g>
                                        <g id="Group-Copy-6" transform="translate(360.867076, 24.211640)" fill="#FFFFFF" stroke="#B59B61" stroke-width="1.1">
                                            <ellipse id="Oval" cx="147.427403" cy="147.470899" rx="147.427403" ry="147.470899"></ellipse>
                                            <ellipse id="Oval-Copy" cx="147.427403" cy="147.470899" rx="129.824131" ry="129.862434"></ellipse>
                                            <ellipse id="Oval-Copy-2" cx="147.427403" cy="147.470899" rx="112.220859" ry="112.253968"></ellipse>
                                            <ellipse id="Oval-Copy-3" cx="147.427403" cy="147.470899" rx="94.6175869" ry="94.6455026"></ellipse>
                                            <ellipse id="Oval-Copy-4" cx="147.427403" cy="147.470899" rx="77.0143149" ry="77.037037"></ellipse>
                                            <ellipse id="Oval-Copy-5" cx="147.427403" cy="147.470899" rx="59.4110429" ry="59.4285714"></ellipse>
                                        </g>
                                        <g id="Group-Copy-14" transform="translate(719.533742, 24.211640)" fill="#FFFFFF" stroke="#B59B61" stroke-width="1.1">
                                            <ellipse id="Oval" cx="147.427403" cy="147.470899" rx="147.427403" ry="147.470899"></ellipse>
                                            <ellipse id="Oval-Copy" cx="147.427403" cy="147.470899" rx="129.824131" ry="129.862434"></ellipse>
                                            <ellipse id="Oval-Copy-2" cx="147.427403" cy="147.470899" rx="112.220859" ry="112.253968"></ellipse>
                                            <ellipse id="Oval-Copy-3" cx="147.427403" cy="147.470899" rx="94.6175869" ry="94.6455026"></ellipse>
                                            <ellipse id="Oval-Copy-4" cx="147.427403" cy="147.470899" rx="77.0143149" ry="77.037037"></ellipse>
                                            <ellipse id="Oval-Copy-5" cx="147.427403" cy="147.470899" rx="59.4110429" ry="59.4285714"></ellipse>
                                        </g>
                                        <g id="Group-Copy-20" transform="translate(1081.501022, 24.211640)" fill="#FFFFFF" stroke="#B59B61" stroke-width="1.1">
                                            <ellipse id="Oval" cx="147.427403" cy="147.470899" rx="147.427403" ry="147.470899"></ellipse>
                                            <ellipse id="Oval-Copy" cx="147.427403" cy="147.470899" rx="129.824131" ry="129.862434"></ellipse>
                                            <ellipse id="Oval-Copy-2" cx="147.427403" cy="147.470899" rx="112.220859" ry="112.253968"></ellipse>
                                            <ellipse id="Oval-Copy-3" cx="147.427403" cy="147.470899" rx="94.6175869" ry="94.6455026"></ellipse>
                                            <ellipse id="Oval-Copy-4" cx="147.427403" cy="147.470899" rx="77.0143149" ry="77.037037"></ellipse>
                                            <ellipse id="Oval-Copy-5" cx="147.427403" cy="147.470899" rx="59.4110429" ry="59.4285714"></ellipse>
                                        </g>
                                    </g>
                                    <g id="Group-Copy-2" transform="translate(0.000000, 105.650794)">
                                        <g id="Group-Copy-8" transform="translate(121.022495, 0.000000)" fill="#FFFFFF" stroke="#B59B61" stroke-width="1.1">
                                            <ellipse id="Oval" cx="205.188139" cy="205.248677" rx="205.188139" ry="205.248677"></ellipse>
                                            <ellipse id="Oval-Copy" cx="205.188139" cy="205.248677" rx="187.584867" ry="187.640212"></ellipse>
                                            <ellipse id="Oval-Copy-2" cx="206.288344" cy="206.349206" rx="171.0818" ry="171.132275"></ellipse>
                                            <ellipse id="Oval-Copy-3" cx="205.188139" cy="205.248677" rx="151.278119" ry="151.322751"></ellipse>
                                            <ellipse id="Oval-Copy-4" cx="205.188139" cy="205.248677" rx="132.574642" ry="132.613757"></ellipse>
                                        </g>
                                        <g id="Group-Copy-10" transform="translate(481.889571, 0.000000)" fill="#FFFFFF" stroke="#B59B61" stroke-width="1.1">
                                            <ellipse id="Oval" cx="205.188139" cy="205.248677" rx="205.188139" ry="205.248677"></ellipse>
                                            <ellipse id="Oval-Copy" cx="205.188139" cy="205.248677" rx="187.584867" ry="187.640212"></ellipse>
                                            <ellipse id="Oval-Copy-2" cx="206.288344" cy="206.349206" rx="171.0818" ry="171.132275"></ellipse>
                                            <ellipse id="Oval-Copy-3" cx="205.188139" cy="205.248677" rx="151.278119" ry="151.322751"></ellipse>
                                            <ellipse id="Oval-Copy-4" cx="205.188139" cy="205.248677" rx="132.574642" ry="132.613757"></ellipse>
                                        </g>
                                        <g id="Group-Copy-16" transform="translate(841.656442, 0.000000)" fill="#FFFFFF" stroke="#B59B61" stroke-width="1.1">
                                            <ellipse id="Oval" cx="205.188139" cy="205.248677" rx="205.188139" ry="205.248677"></ellipse>
                                            <ellipse id="Oval-Copy" cx="205.188139" cy="205.248677" rx="187.584867" ry="187.640212"></ellipse>
                                            <ellipse id="Oval-Copy-2" cx="206.288344" cy="206.349206" rx="171.0818" ry="171.132275"></ellipse>
                                            <ellipse id="Oval-Copy-3" cx="205.188139" cy="205.248677" rx="151.278119" ry="151.322751"></ellipse>
                                            <ellipse id="Oval-Copy-4" cx="205.188139" cy="205.248677" rx="132.574642" ry="132.613757"></ellipse>
                                        </g>
                                        <g id="Group-Copy-22" transform="translate(1203.623722, 0.000000)" fill="#FFFFFF" stroke="#B59B61" stroke-width="1.1">
                                            <ellipse id="Oval" cx="205.188139" cy="205.248677" rx="205.188139" ry="205.248677"></ellipse>
                                            <ellipse id="Oval-Copy" cx="205.188139" cy="205.248677" rx="187.584867" ry="187.640212"></ellipse>
                                            <ellipse id="Oval-Copy-2" cx="206.288344" cy="206.349206" rx="171.0818" ry="171.132275"></ellipse>
                                        </g>
                                        <g id="Group-Copy-6" transform="translate(360.867076, 24.211640)" fill="#FFFFFF" stroke="#B59B61" stroke-width="1.1">
                                            <ellipse id="Oval" cx="147.427403" cy="147.470899" rx="147.427403" ry="147.470899"></ellipse>
                                            <ellipse id="Oval-Copy" cx="147.427403" cy="147.470899" rx="129.824131" ry="129.862434"></ellipse>
                                            <ellipse id="Oval-Copy-2" cx="147.427403" cy="147.470899" rx="112.220859" ry="112.253968"></ellipse>
                                            <ellipse id="Oval-Copy-3" cx="147.427403" cy="147.470899" rx="94.6175869" ry="94.6455026"></ellipse>
                                        </g>
                                        <g id="Group-Copy-13" transform="translate(719.533742, 24.211640)" fill="#FFFFFF" stroke="#B59B61" stroke-width="1.1">
                                            <ellipse id="Oval" cx="147.427403" cy="147.470899" rx="147.427403" ry="147.470899"></ellipse>
                                            <ellipse id="Oval-Copy" cx="147.427403" cy="147.470899" rx="129.824131" ry="129.862434"></ellipse>
                                            <ellipse id="Oval-Copy-2" cx="147.427403" cy="147.470899" rx="112.220859" ry="112.253968"></ellipse>
                                            <ellipse id="Oval-Copy-3" cx="147.427403" cy="147.470899" rx="94.6175869" ry="94.6455026"></ellipse>
                                        </g>
                                        <g id="Group-Copy-19" transform="translate(1081.501022, 24.211640)" fill="#FFFFFF" stroke="#B59B61" stroke-width="1.1">
                                            <ellipse id="Oval" cx="147.427403" cy="147.470899" rx="147.427403" ry="147.470899"></ellipse>
                                            <ellipse id="Oval-Copy" cx="147.427403" cy="147.470899" rx="129.824131" ry="129.862434"></ellipse>
                                            <ellipse id="Oval-Copy-2" cx="147.427403" cy="147.470899" rx="112.220859" ry="112.253968"></ellipse>
                                            <ellipse id="Oval-Copy-3" cx="147.427403" cy="147.470899" rx="94.6175869" ry="94.6455026"></ellipse>
                                        </g>
                                    </g>
                                </g>
                            </g>
                        </g>
                    </g>
                </g>
            </g>
        </g>
    </g>
</svg>