<svg class="SvgWrap_svg SvgWrap_svg-section" xmlns="http://www.w3.org/2000/svg" width="2559" height="1383" viewBox="0 0 2559 1383">
    <g class="SvgWrap_section SvgWrap_section-commercial" id="_1k_1s" data-name="1k_1s" fill="#eeeeee">
        <a xlink:href="/floor-map.html">
            <g class="SvgWrap_floor" id="_1k_1s_1" data-name="1k_1s_1" data-section="1" data-floor="1" data-commercial-flats="1">
                <path d="M776.915,1236.756,753,1237l-16-5s-1.109-8.445-2-10c-1.456-2.542.217-1.128-3-2-.333,2.666-1,10-1,10l-31-9a.941.941,0,0,1,.047.156l-2.442-.731c-.188-.129-.388-.268-.605-.425-1.711-1.237-.442-2.718-3-4-1.737,1.322-1.607,1.727-3,1-1.161-1.935,2.278-2.936,1-7-.361-1.148-1.565-1.324-2-4,10.1-.067,21.371-3.314,31-4v-5c-1.084-.909-.085.078-1-1-12.212-.024-26.5-5.849-34-11-.828,3.245.49,1.528-2,3-4.371-2.043-13.227,3.532-20,4-1.1-5.005-1.644-15.475-8-18a163.613,163.613,0,0,1-3,22c-5.078.131-5.2,1.147-9,2v6c-4.494-.561-8.374-3.083-14-3.8l-3-.9V1196h-1v-71l126,30,287-2v14h8v67l-95,.969V1233h1c.035-4.629,2-2.285,3-5,.507-1.382-1.837-4.906-2-8-5.185-.021-6.614.959-10,2-1.219-2.466-1.768-1.543-3-4h7c-.828-3.245.49-1.528-2-3-1.846-.062-.895.944-2-1h-1c.636-2.808,1.776-3.615,1-5-1.073-.752-.946-.6-3-1-1.134,4.138-1.751,4.062-7,4-1.351-3.256-1.178.344-4-1-.752-1.073-.6-.946-1-3-3.713-.805-3.5-1.934-7-3-.834,5.406-2.049,3.342-3,5-1.318,2.3.427,4.556,0,6-2.9-.836-2.574-1.391-6-2v2c2.467,1.3.681-.429,2,2-2.951.09-2.128,1.321-7,2-1.134-4.138-1.751-4.062-7-4v2c1.268,2.083,1.864,14.733,1.979,17.47L851,1236h-6v-33c1-3,3-4,1-9-1.462-2.521-3-3-5-1a9.868,9.868,0,0,0,2,10v33H807v-2c3.58-.416,2.516.472,4-2a8.655,8.655,0,0,1-3-4c3.363-1.367,4.21-4.548,4-11h-1v1c-1.886,1.606-2.428,2.893-5,4-.979-2.67-1.282-1.718-2-5,1.624-1.35,1.121-.64,2-3h-3q-.5-3.5-1-7c-5.835.661-9.689.817-15,1-1.13,3.668-2.493,3.116-4,6,.8,1.021.355.274,1,2-4.148-.195-6.426-.6-8,2,3.58.416,2.516-.472,4,2-3.245.828-1.528-.49-3,2h5v4h-2c-2.08-1.307-1.74,1.086-4,0-.542-.261-1.71-3.014-4-4v2C772.735,1224.826,776.323,1235.06,776.915,1236.756ZM920,1219c1.029.807.246.369,2,1v-1Zm19,5h5v-2h-5Zm-276-16c1.979,2.239,4.535,2.174,9,2v-1A27.42,27.42,0,0,0,663,1208Zm19,7v-7c-3.56.456-2.534-.525-4,2-2.472-1.484-1.584-.42-2-4-2.5,1.437-1.5,2.563-4,4,1.21,1.726,1.9,1.7,2.82,3.607l1.76.527A37.6,37.6,0,0,0,682,1215Zm-35-9.717,5.674,1.7c.109.006.217.019.326.019v-3h-6ZM784,1220v2h2v-2Zm2-8v2C787.77,1213.069,787.116,1213.66,786,1212Zm2,16v-6h-2v6Zm152-14h-2v2h2Zm-132,16h-2v2h2Zm-24,3a12.662,12.662,0,0,0-4-1v2h4Zm-6,3.745,2-.021V1234h-2Z" fill="#fff"/>
            </g>
        </a>
    </g>
    <g class="SvgWrap_section SvgWrap_section-commercial" id="_1k_11s" data-name="1k_11s">
        <a xlink:href="/floor-map.html">
            <g class="SvgWrap_floor" id="_1k_11s_1" data-name="1k_11s_1" data-section="11" data-floor="1" data-commercial-flats="2">
                <path d="M1422,1210h2v2h-2Zm40,16v-2c-3.9.482-3.2.97-6,2v4C1460.034,1228.907,1458.785,1227.584,1462,1226Zm-38-28v-2h-2v2Zm31,24c.207,2.63-.578,1.557,3,2C1456.528,1221.51,1458.245,1222.828,1455,1222Zm8-12h-4q-.5,3-1,6c2.157-.915,1.454-.867,3-2v-2c.805-1.908,1,2,1,2h2Zm-7,8h2v-2h-2Zm12,2h2v-2h-2Zm2-26h-2v2h2Zm-35,4v2h7v-2Zm11,14h2c-.4-2.054-.248-1.927-1-3Zm26-24.12V1148l-425,3h-8v16h8v67l32.9-.31c-.2-.6-.644-1.93-.9-2.69,2.042-1.22,1.9-.644,3-3,2.037,1.264,2.925,1.612,4,4h5c-1.14-2.6-3.409-2.955-4-4-1.146-2.028,1.3-2.958,1-4-1.812-6.3-2.526-7.368-3-14h5a10.315,10.315,0,0,0-4-5c2.39-2.315,2.192.025,2-3,7.365.732,2.086,1.1,9,0,1.688-8.863,9.8-8.868,13-16,3.118.605,2.432.172,4,2,2.41-.931,1.576-1.094,4-2v-4c7.274,1.667,7.8,7.642,13,11v5c5.733,1.266,3.268,3.191,5,6v2a8.655,8.655,0,0,0,4-3h2c-1.445,3.009-1.15,4.063-5,5a21.987,21.987,0,0,0,7,4c-.88,2.884-1.461,2.556-2,6h-5c1.088,2.352,1.943,2.776,4,4-1.484,2.472-.42,1.584-4,2,4.16,4.6,8,9,8,9h8.25l68.77-.647A39.893,39.893,0,0,1,1224,1222h4v10c2.5-1.437,1.5-2.563,4-4-1.66-4.069-5.675-21.978,0-27,.064-4.953.871-5.968,2-9h2c1.226,6.374,1.125,36.422,2,38v2h21.5l6.865-.065c1.271-.232,5.478-1.075,4.635-1.935h-1v-2c-2.429,1.319-.7-.468-2,2h-4c.635-2.232.739-2.641,2-4v-2c-2.429,1.319-.7-.468-2,2-3.8-.807-2.278-.9-4-4h-10c1.5-2.5,2.1-2.029,6-2v-1a12.662,12.662,0,0,0-4-1v-4c2.429,1.319.7-.468,2,2h4c-1.319-2.429.468-.7-2-2,1.437-2.5,2.563-1.5,4-4,3.984,1.83,1.868,3.261,6,3-.483,2.769-1.207,2.889,0,5v2h2v-6h4c-1.052-2.787-1.583-2.083-2-6h4c-1.459-2.508-3.393-2.432-5-5-2.114-3.754,2.687-5.692,0-9,1.472-2.49-.245-1.172,3-2-1.174-.807-1.672-.805-4-1v-3h6v4c2.429-1.319.7.468,2-2,.918-2.009-.075-4.1-2-6v-2c5.351,2.153,6.2,5.088,7,10h3c-1.381-3.734-3.4-9.249-6-12v-2h4c.482-3.9.97-3.2,2-6,2.429,1.319.7-.468,2,2,2.024,1.99-3.5,5.82-4,10h2v-4c3.615-.889,3.054-.607,4-4h2c-.456,3.56.525,2.534-2,4,.717,3.126.659,2.1,2,4-4.237,1.987-2.591,5.711-6,8,1.052,2.787,1.583,2.083,2,6,3.565-1.845,4.992-3.607,6-8,4.567,2.7,4.06,10.593,8,14,1.437,2.5,2.563,1.5,4,4,2.49-1.472,1.172.245,2-3h1c1.635,4.756,1.033,9.071,1,15,2.429-1.319.7.468,2-2,2.157.915,1.454.867,3,2-1.472,2.49.245,1.172-3,2-.512,5.171-3.352,7.216-8,8v1.6l83-.781V1193c-3-2-2-8,1-8s3,7,1,8v37.8l12.849-.121c-.511-1.243-1.83-6.134,4.151-14.679h3c.588,4.118,1.695,12.645,1.948,14.594l14.168-.134c1.473-.731,3.884-2,3.884-2.46h-4c-.455-6.342-3.248-4.315-5-8-.368-.773,2.364-2.324,1-4h-2c1.162-2.223,1.448-1.505,3-3,.015-.011,1.99.01,1-1h-1c-1.484-2.472-.42-1.584-4-2v-2c3.56.456,2.534-.525,4,2,3.284-1.9.767-6.387,4-8-1.075-2.517-1.447-2.959-4-4q.5-3,1-6c3.259.291,9.55,1.634,11,4,4.4-.76,5.057-1.962,6-6h4v-6h4c.227-2.319.2-2.821,1-4,1.4-.752,6.623,1.4,7,2h2v-4h3c-1.06,2.262-.7,2.766-3,4a6.107,6.107,0,0,0,2,2,35.383,35.383,0,0,1-3,3h-1v1c5.72-.293,5.648-1.629,11-2v-4C1471.6,1182.736,1470.694,1185.18,1472,1187.88ZM1114,1200h-2l1,2h1Zm158,16v2h2v-2Zm-170,14v-1h1v1h1c-1.472-2.49.245-1.172-3-2C1101,1228,1101.225,1231.923,1102,1230Zm366-8h-2v2h2Zm-2,2h-2v6c4.461-.457,4.967-1.49,8-3v-3C1468.481,1225.234,1469.212,1226.536,1466,1224Zm-356-34h-2v2h2Zm21,32c.207,2.63-.578,1.557,3,2C1132.528,1221.51,1134.245,1222.828,1131,1222Zm169-12c-1.472-2.49.245-1.172-3-2,.645,1.726.2.979,1,2,.645,1.726.2.979,1,2C1299.645,1210.274,1299.2,1211.021,1300,1210Zm-189,16h1c-.956-3.578-1.964-4.975-2-10h-4c1.052,2.787,1.583,2.083,2,6h-5C1104.983,1224.145,1108.991,1223.886,1111,1226Zm172-19a12.662,12.662,0,0,0-4-1c.227,2.319.2,2.821,1,4,.645,1.726.2.979,1,2Zm-192,5c1.355,1.6.611,1.158,3,2C1092.528,1211.51,1094.245,1212.828,1091,1212Zm7,6v3h2C1099.128,1217.783,1100.542,1219.456,1098,1218Z" fill="#fff"/>
            </g>
        </a>

    </g>
    <g class="SvgWrap_section SvgWrap_section-commercial" id="_1k_10s" data-name="1k_10s">
        <a xlink:href="/floor-map.html">
            <g class="SvgWrap_floor" id="_1k_10s_1" data-name="1k_10s_1" data-section="10" data-floor="1" data-commercial-flats="5">
                <path d="M1798,1224c3.245.828,1.528-.49,3,2h-3Zm-6-40v-1h-2C1791.029,1183.807,1790.246,1183.369,1792,1184Zm0,18h3c-1.472-2.49.245-1.172-3-2Zm-9,24h3c-1.472-2.49.245-1.172-3-2Zm7,0v-1h-2c.645,1.726.2.979,1,2v-1Zm-4-8v2C1787.77,1219.069,1787.116,1219.66,1786,1218Zm-8-2c2.078.442,4.562.95,6,2h2c-1.512-3.563-3.778-4.259-8-5Zm0-12v2h3C1779.528,1203.51,1781.245,1204.828,1778,1204Zm-156,18c-.645,1.726-.2.979-1,2-1.611.964-.094.058-3,0l1,2c5.382-.193,3.344-.783,5-2C1622.681,1221.571,1624.468,1223.3,1622,1222Zm-150-4c1.029.807.246.369,2,1v-1Zm154,10v-2h-2C1624.175,1228.721,1623.269,1227.264,1626,1228Zm1-10v2h5v-2Zm7-6v2h2v-2Zm170,10h3v-2h-7C1801.873,1222.959,1802.341,1220.886,1804,1222Zm-18-44h2v-2h-2Zm-22,44v-2h-2v2Zm55,3v2.108l13-.108v-77h-4v-4l-356,2v39.88a7.3,7.3,0,0,0,3,3.12c-1.075.758-.924.628-3,1v3c2.305,1.054,3.7,2.148,6,3v4h3c-.351,4.605-.744,6,0,10-1.9,1.334-.848,1.326-4,2,1.319,2.429-.468.7,2,2-1.293,3.194-3.175,5.23-7,6,.931,2.41,1.094,1.576,2,4h7c-1.319,2.429.468.7-2,2v1.942l52.962-.442c-.3-4.081-2.173-32.787,4.038-38.5v-1h2c2.18,10.684,2.043,35.434,2.006,39.433l50.574-.421c.73-1.358,1.84-3.876,1.42-6.012-.92-4.676-4.225-17.3-2-25,.625-2.161,1.877-3.786,2-8h3c2.2,8.592,8.235,30.963,1,34v2c3.3.089,7.162.238,9-1,0,0-2.477-6.957-4-9,2.059-3.626,3.395-2.308,8-2v-1h1c-.1-3.864-.228-5.081-2-7v-2c2.429,1.319.7-.468,2,2h2v-4h4c-1.319-2.429.468-.7-2-2v-4c2.929,1.11,3.326,1.916,8,2-.456-3.56.525-2.534-2-4v-2c3.042,1.335,3.049,2.8,5,5,.54.572,3.9-.914,5-3h2c-1.251,3.549-1.457,3.7-6,4,1.323,2.545,3.436,3.532,5,6,.807-1.174.805-1.672,1-4,2.429,1.319.7-.468,2,2,7.271-.026,6.692,2.652,6,8,2.429-1.319.7.468,2-2,2.429,1.319.7-.468,2,2,.756,1.256.075.958,0,4h4c.758,3.623,3.34,6.435,1,10-1.472,2.49.245,1.172-3,2,.238.476,2.676,1.8,4.057,2.516l11.943-.1V1191c-3-2-4-10,1-10,4,0,3,8,1,10v37.4l42.752-.356A23.477,23.477,0,0,1,1706,1224h3c-1.76-4.917-6.354-20.151-1-26a22.326,22.326,0,0,1,2-10h2a6.107,6.107,0,0,0,2,2c.12,5.588,1.671,14.412,1,16v2h4q-.5,6.5-1,13c.34,1.124,2.433.368,2,3a8.756,8.756,0,0,0-1.822,3.948l44.548-.371A11.714,11.714,0,0,0,1764,1224c-3.9-.482-3.2-.97-6-2,1.484-2.472.42-1.584,4-2-.09-3.208-.365-3.311,2-6-.438-1.346-6.792-11.083-6-12,2.192-2.538,3.437-3.47,4-8h4c.005-6.569,3.031-12.156,6-14,2.322-1.378,10.454,1.092,12,4h3c-1-3.4-4.337-8.824-7-10v-2c4.6.544,5.359,1.97,8,4a24.369,24.369,0,0,1,5-2c.554,5.685,1.828,4.411,5,7,.913.9,3.016,5.156,0,7l1,2h7v-4h2a52.778,52.778,0,0,0,0,8c3.519-.771,2.465-1.284,6-2-1.317-2.286-2.15-1.555-4-3,.015-.011,1.99.01,1-1h-1v-2l10,2c-.891,2.937-.39,2.743-3,4,1.472,2.49-.245,1.172,3,2-1.484,2.472-.42,1.584-4,2,1.319,2.429-.468.7,2,2-1.075,2.517-1.447,2.959-4,4,1.141,3.012,2.006,4.048,2,9,4.408-.615,6.48.864,8-1h2c-.645,1.726-.2.979-1,2-1.485,2.471-1.236,1.857-5,2,1.353,2.266,3.5,2.183,6,3-1.138,1.557-1.1.811-2,3h-3C1821.036,1224.562,1822.4,1222.884,1819,1225Z" fill="#fff"/>
            </g>
        </a>
    </g>
    <g class="SvgWrap_section SvgWrap_section-commercial" id="_1k_9s" data-name="1k_9s">
        <a xlink:href="/floor-map.html">
            <g class="SvgWrap_floor" id="_1k_9s_1" data-name="1k_9s_1"  data-section="9" data-floor="1" data-commercial-flats="3">
                <path d="M1832,1150l361-2v77l-59,.327V1184c1.883-2.038,4-9-1-9s-4,7-1,9v41.338l-31,.172V1224c2.535-2.767,2.883-7.732,4-14h-3v-4c-3.067-.51-5.7-1.64-7-4,1.945-2.04,1.22-2.97,1-8-6.626-.365-6.521,2.556-13,4v-2c2-2.013,1.343-2.275,2-6h-1c-2.1,3.385-4.388,1.433-8,0-1.041,2.553-1.483,2.925-4,4l-4-9h-1v1c-2.851,3.184-3.452,10.73-4,16-5.446-.172-5.368-1.366-10-2-.007,4.761.338,2.169-1,6h3c-.192,5.326-2.218,5.332,0,10-4.017.317-5.589,1.167-7,4,1.869,1.035,3.521,4.831,3.912,5.782l-83.952.465c-.159-2.864-.8-13.091-1.96-15.247v-1h-3q-.5,3-1,6h-2v-16c-1.985-3.045-2.266-10.178-3-14h-3c-1.9,15.657-5.647,22.047,0,36h-4v4.346l-10.245.057c-.369-.9-1.1-2.7-1.755-4.4,3.917-4.4,1.506-5.629,0-12h3q-.5-3-1-6c3.764-.143,3.515.471,5-2-.345-2.325,1.114-1.927,2-6-3.04.47-3.14,1.984-4,1-3.458-1.543-4.144-3.451-7-5-1.456,2.542.217,1.128-3,2-.045-2.7.168-.661-1-4a6.107,6.107,0,0,0,2-2c-3.19-.656-3.333-1.105-5-3l-10,1c-.961,1.766-1.257,1.68-2,4h3q.5,3,1,6c-5.573.066-3.056,1.178-9,2,.1-6.819,3.412-15.056,2-18-1.462-2.521-1.255-1.828-5-2v2c-.95,1.711.883,21.911,1,28-3.917-.2-2.64-.378-6,0v-2c2.553-1.041,2.925-1.483,4-4h-7v-2a6.107,6.107,0,0,0,2-2h-7c.036,5.025,1.044,6.422,2,10,4.179.447,7.2,4.682,11,8a97.955,97.955,0,0,0-.95,10.579L1832,1227Zm254,68v2h2v-2Zm-11-4v2h3C2076.528,1213.51,2078.245,1214.828,2075,1214Zm-14-8h1c-.645-1.726-.2-.979-1-2Zm-99,12h-2c-1.319,2.429.468.7-2,2,1.052,2.787,1.583,2.083,2,6h2Zm-40,2v6h3a19.54,19.54,0,0,0-2-4v-2Zm-6-20h-2v2h2Zm14,24v2h2v-2Zm-17,2h3c-1.472-2.49.245-1.172-3-2Zm-5-14h2v-2h-2Z" fill="#fff"/>
            </g>
        </a>
    </g>
</svg>
