<svg version="1.1" x="0px" y="0px" width="1137" height="925" viewBox="0 0 1137 925" enable-background="0 0 1137 925" xml:space="preserve">
            <g>
              <a xlink:href="/choose/flat-1-1-28/" data-flat-link="" tabindex="0">
                <polygon title="" data-id="193" data-url="/choose/flat-1-1-28/" fill="#D4DFE8" points="706,312 485.5,19.5 21.5,369 98.5,471 286,330 340,401 378.5,372 405.5,406.5 460.5,365 524,449" data-original-title="1"></polygon>
              </a>
            </g>
          </svg>