<?xml version="1.0" encoding="UTF-8"?>
<svg width="942px" height="642px" viewBox="0 0 942 642" version="1.1" xmlns="http://www.w3.org/2000/svg" xmlns:xlink="http://www.w3.org/1999/xlink">
    <!-- Generator: Sketch 50 (54983) - http://www.bohemiancoding.com/sketch -->
    <title>Ramka</title>
    <desc>Created with Sketch.</desc>
    <defs></defs>
    <g id="Главная" stroke="none" stroke-width="1" fill="none" fill-rule="evenodd">
        <g id="sf_desktop_1024" transform="translate(-41.000000, -1600.000000)" stroke="#B59B61" stroke-width="0.5">
            <g id="3" transform="translate(0.000000, 1536.000000)">
                <g id="Ramka" transform="translate(42.000000, 65.000000)">
                    <polygon id="Mask-Copy" points="40 40 40 0.140616829 900 0 900 39.5812271 940 40 940 593.276547 899.104261 592.857774 899.104261 639.754423 40 640 40 600 0 600 2.3129025e-13 39.8593832"></polygon>
                    <polygon id="Rectangle-Copy-2" points="20 20 920 20 920 620 20 620"></polygon>
                </g>
            </g>
        </g>
    </g>
</svg>