<?xml version="1.0" encoding="UTF-8"?>
<svg width="1280px" height="435px" viewBox="0 0 1280 435" version="1.1" xmlns="http://www.w3.org/2000/svg" xmlns:xlink="http://www.w3.org/1999/xlink">
    <!-- Generator: Sketch 50 (54983) - http://www.bohemiancoding.com/sketch -->
    <title>Group 2 Copy</title>
    <desc>Created with Sketch.</desc>
    <defs>
        <rect id="path-1" x="0" y="0" width="1280" height="435"></rect>
    </defs>
    <g id="Главная" stroke="none" stroke-width="1" fill="none" fill-rule="evenodd">
        <g id="sf_desktop_1280" transform="translate(0.000000, -4751.000000)">
            <g id="Контакты" transform="translate(0.000000, 4751.000000)">
                <g id="Group-2-Copy">
                    <mask id="mask-2" fill="white">
                        <use xlink:href="#path-1"></use>
                    </mask>
                    <use id="Mask" fill="#FFFFFF" xlink:href="#path-1"></use>
                    <g mask="url(#mask-2)">
                        <g transform="translate(1240.500000, 402.500000) rotate(-90.000000) translate(-1240.500000, -402.500000) translate(433.000000, 90.000000)">
                            <g id="Group">
                                <g id="Group-Copy-11" transform="translate(481.889571, 0.000000)" fill="#FFFFFF" stroke="#B59B61" stroke-width="1.1">
                                    <ellipse id="Oval" cx="205.188139" cy="205.248677" rx="205.188139" ry="205.248677"></ellipse>
                                    <ellipse id="Oval-Copy" cx="205.188139" cy="205.248677" rx="187.584867" ry="187.640212"></ellipse>
                                    <ellipse id="Oval-Copy-2" cx="206.288344" cy="206.349206" rx="171.0818" ry="171.132275"></ellipse>
                                    <ellipse id="Oval-Copy-3" cx="205.188139" cy="205.248677" rx="151.278119" ry="151.322751"></ellipse>
                                    <ellipse id="Oval-Copy-4" cx="205.188139" cy="205.248677" rx="132.574642" ry="132.613757"></ellipse>
                                    <ellipse id="Oval-Copy-5" cx="205.188139" cy="205.248677" rx="113.871166" ry="113.904762"></ellipse>
                                    <ellipse id="Oval-Copy-6" cx="205.738241" cy="205.798942" rx="96.8179959" ry="96.8465608"></ellipse>
                                </g>
                                <g id="Group-Copy-17" transform="translate(841.656442, 0.000000)" fill="#FFFFFF" stroke="#B59B61" stroke-width="1.1">
                                    <ellipse id="Oval" cx="205.188139" cy="205.248677" rx="205.188139" ry="205.248677"></ellipse>
                                    <ellipse id="Oval-Copy" cx="205.188139" cy="205.248677" rx="187.584867" ry="187.640212"></ellipse>
                                    <ellipse id="Oval-Copy-2" cx="206.288344" cy="206.349206" rx="171.0818" ry="171.132275"></ellipse>
                                    <ellipse id="Oval-Copy-3" cx="205.188139" cy="205.248677" rx="151.278119" ry="151.322751"></ellipse>
                                    <ellipse id="Oval-Copy-4" cx="205.188139" cy="205.248677" rx="132.574642" ry="132.613757"></ellipse>
                                    <ellipse id="Oval-Copy-5" cx="205.188139" cy="205.248677" rx="113.871166" ry="113.904762"></ellipse>
                                    <ellipse id="Oval-Copy-6" cx="205.738241" cy="205.798942" rx="96.8179959" ry="96.8465608"></ellipse>
                                    <ellipse id="Oval-Copy-7" cx="205.738241" cy="205.798942" rx="82.5153374" ry="82.5396825"></ellipse>
                                </g>
                                <g id="Group-Copy-23" transform="translate(1203.623722, 0.000000)" fill="#FFFFFF" stroke="#B59B61" stroke-width="1.1">
                                    <ellipse id="Oval" cx="205.188139" cy="205.248677" rx="205.188139" ry="205.248677"></ellipse>
                                </g>
                                <g id="Group-Copy-14" transform="translate(719.533742, 24.211640)" fill="#FFFFFF" stroke="#B59B61" stroke-width="1.1">
                                    <ellipse id="Oval" cx="147.427403" cy="147.470899" rx="147.427403" ry="147.470899"></ellipse>
                                    <ellipse id="Oval-Copy" cx="147.427403" cy="147.470899" rx="129.824131" ry="129.862434"></ellipse>
                                    <ellipse id="Oval-Copy-2" cx="147.427403" cy="147.470899" rx="112.220859" ry="112.253968"></ellipse>
                                    <ellipse id="Oval-Copy-3" cx="147.427403" cy="147.470899" rx="94.6175869" ry="94.6455026"></ellipse>
                                    <ellipse id="Oval-Copy-4" cx="147.427403" cy="147.470899" rx="77.0143149" ry="77.037037"></ellipse>
                                    <ellipse id="Oval-Copy-5" cx="147.427403" cy="147.470899" rx="59.4110429" ry="59.4285714"></ellipse>
                                </g>
                                <g id="Group-Copy-20" transform="translate(1081.501022, 24.211640)" fill="#FFFFFF" stroke="#B59B61" stroke-width="1.1">
                                    <ellipse id="Oval" cx="147.427403" cy="147.470899" rx="147.427403" ry="147.470899"></ellipse>
                                    <ellipse id="Oval-Copy" cx="147.427403" cy="147.470899" rx="129.824131" ry="129.862434"></ellipse>
                                    <ellipse id="Oval-Copy-2" cx="147.427403" cy="147.470899" rx="112.220859" ry="112.253968"></ellipse>
                                    <ellipse id="Oval-Copy-3" cx="147.427403" cy="147.470899" rx="94.6175869" ry="94.6455026"></ellipse>
                                    <ellipse id="Oval-Copy-4" cx="147.427403" cy="147.470899" rx="77.0143149" ry="77.037037"></ellipse>
                                    <ellipse id="Oval-Copy-5" cx="147.427403" cy="147.470899" rx="59.4110429" ry="59.4285714"></ellipse>
                                </g>
                            </g>
                            <g id="Group-Copy-2" transform="translate(0.000000, 105.650794)">
                                <g id="Group-Copy-10" transform="translate(481.889571, 0.000000)" fill="#FFFFFF" stroke="#B59B61" stroke-width="1.1">
                                    <ellipse id="Oval" cx="205.188139" cy="205.248677" rx="205.188139" ry="205.248677"></ellipse>
                                    <ellipse id="Oval-Copy" cx="205.188139" cy="205.248677" rx="187.584867" ry="187.640212"></ellipse>
                                    <ellipse id="Oval-Copy-2" cx="206.288344" cy="206.349206" rx="171.0818" ry="171.132275"></ellipse>
                                    <ellipse id="Oval-Copy-3" cx="205.188139" cy="205.248677" rx="151.278119" ry="151.322751"></ellipse>
                                    <ellipse id="Oval-Copy-4" cx="205.188139" cy="205.248677" rx="132.574642" ry="132.613757"></ellipse>
                                    <ellipse id="Oval-Copy-5" cx="205.188139" cy="205.248677" rx="113.871166" ry="113.904762"></ellipse>
                                    <ellipse id="Oval-Copy-6" cx="205.738241" cy="205.798942" rx="96.8179959" ry="96.8465608"></ellipse>
                                </g>
                                <g id="Group-Copy-16" transform="translate(841.656442, 0.000000)" fill="#FFFFFF" stroke="#B59B61" stroke-width="1.1">
                                    <ellipse id="Oval" cx="205.188139" cy="205.248677" rx="205.188139" ry="205.248677"></ellipse>
                                    <ellipse id="Oval-Copy" cx="205.188139" cy="205.248677" rx="187.584867" ry="187.640212"></ellipse>
                                    <ellipse id="Oval-Copy-2" cx="206.288344" cy="206.349206" rx="171.0818" ry="171.132275"></ellipse>
                                    <ellipse id="Oval-Copy-3" cx="205.188139" cy="205.248677" rx="151.278119" ry="151.322751"></ellipse>
                                    <ellipse id="Oval-Copy-4" cx="205.188139" cy="205.248677" rx="132.574642" ry="132.613757"></ellipse>
                                    <ellipse id="Oval-Copy-5" cx="205.188139" cy="205.248677" rx="113.871166" ry="113.904762"></ellipse>
                                    <ellipse id="Oval-Copy-6" cx="205.738241" cy="205.798942" rx="96.8179959" ry="96.8465608"></ellipse>
                                    <ellipse id="Oval-Copy-7" cx="205.738241" cy="205.798942" rx="82.5153374" ry="82.5396825"></ellipse>
                                </g>
                                <g id="Group-Copy-22" transform="translate(1203.623722, 0.000000)" fill="#FFFFFF" stroke="#B59B61" stroke-width="1.1">
                                    <ellipse id="Oval" cx="205.188139" cy="205.248677" rx="205.188139" ry="205.248677"></ellipse>
                                </g>
                                <g id="Group-Copy-13" transform="translate(719.533742, 24.211640)" fill="#FFFFFF" stroke="#B59B61" stroke-width="1.1">
                                    <ellipse id="Oval" cx="147.427403" cy="147.470899" rx="147.427403" ry="147.470899"></ellipse>
                                    <ellipse id="Oval-Copy" cx="147.427403" cy="147.470899" rx="129.824131" ry="129.862434"></ellipse>
                                    <ellipse id="Oval-Copy-2" cx="147.427403" cy="147.470899" rx="112.220859" ry="112.253968"></ellipse>
                                    <ellipse id="Oval-Copy-3" cx="147.427403" cy="147.470899" rx="94.6175869" ry="94.6455026"></ellipse>
                                    <ellipse id="Oval-Copy-4" cx="147.427403" cy="147.470899" rx="77.0143149" ry="77.037037"></ellipse>
                                    <ellipse id="Oval-Copy-5" cx="147.427403" cy="147.470899" rx="59.4110429" ry="59.4285714"></ellipse>
                                </g>
                                <g id="Group-Copy-19" transform="translate(1081.501022, 24.211640)" fill="#FFFFFF" stroke="#B59B61" stroke-width="1.1">
                                    <ellipse id="Oval" cx="147.427403" cy="147.470899" rx="147.427403" ry="147.470899"></ellipse>
                                    <ellipse id="Oval-Copy" cx="147.427403" cy="147.470899" rx="129.824131" ry="129.862434"></ellipse>
                                    <ellipse id="Oval-Copy-2" cx="147.427403" cy="147.470899" rx="112.220859" ry="112.253968"></ellipse>
                                    <ellipse id="Oval-Copy-3" cx="147.427403" cy="147.470899" rx="94.6175869" ry="94.6455026"></ellipse>
                                    <ellipse id="Oval-Copy-4" cx="147.427403" cy="147.470899" rx="77.0143149" ry="77.037037"></ellipse>
                                    <ellipse id="Oval-Copy-5" cx="147.427403" cy="147.470899" rx="59.4110429" ry="59.4285714"></ellipse>
                                </g>
                            </g>
                            <g id="Group-Copy" transform="translate(0.000000, 213.502646)">
                                <g id="Group-Copy-9" transform="translate(481.889571, 0.000000)" fill="#FFFFFF" stroke="#B59B61" stroke-width="1.1">
                                    <ellipse id="Oval" cx="205.188139" cy="205.248677" rx="205.188139" ry="205.248677"></ellipse>
                                    <ellipse id="Oval-Copy" cx="205.188139" cy="205.248677" rx="187.584867" ry="187.640212"></ellipse>
                                    <ellipse id="Oval-Copy-2" cx="206.288344" cy="206.349206" rx="171.0818" ry="171.132275"></ellipse>
                                    <ellipse id="Oval-Copy-3" cx="205.188139" cy="205.248677" rx="151.278119" ry="151.322751"></ellipse>
                                    <ellipse id="Oval-Copy-4" cx="205.188139" cy="205.248677" rx="132.574642" ry="132.613757"></ellipse>
                                    <ellipse id="Oval-Copy-5" cx="205.188139" cy="205.248677" rx="113.871166" ry="113.904762"></ellipse>
                                    <ellipse id="Oval-Copy-6" cx="205.738241" cy="205.798942" rx="96.8179959" ry="96.8465608"></ellipse>
                                </g>
                                <g id="Group-Copy-15" transform="translate(841.656442, 0.000000)" fill="#FFFFFF" stroke="#B59B61" stroke-width="1.1">
                                    <ellipse id="Oval" cx="205.188139" cy="205.248677" rx="205.188139" ry="205.248677"></ellipse>
                                    <ellipse id="Oval-Copy" cx="205.188139" cy="205.248677" rx="187.584867" ry="187.640212"></ellipse>
                                    <ellipse id="Oval-Copy-2" cx="206.288344" cy="206.349206" rx="171.0818" ry="171.132275"></ellipse>
                                    <ellipse id="Oval-Copy-3" cx="205.188139" cy="205.248677" rx="151.278119" ry="151.322751"></ellipse>
                                    <ellipse id="Oval-Copy-4" cx="205.188139" cy="205.248677" rx="132.574642" ry="132.613757"></ellipse>
                                    <ellipse id="Oval-Copy-5" cx="205.188139" cy="205.248677" rx="113.871166" ry="113.904762"></ellipse>
                                    <ellipse id="Oval-Copy-6" cx="205.738241" cy="205.798942" rx="96.8179959" ry="96.8465608"></ellipse>
                                    <ellipse id="Oval-Copy-7" cx="205.738241" cy="205.798942" rx="82.5153374" ry="82.5396825"></ellipse>
                                </g>
                                <g id="Group-Copy-21" transform="translate(1203.623722, 0.000000)" fill="#FFFFFF" stroke="#B59B61" stroke-width="1.1">
                                    <ellipse id="Oval" cx="205.188139" cy="205.248677" rx="205.188139" ry="205.248677"></ellipse>
                                </g>
                                <g id="Group-Copy-12" transform="translate(719.533742, 24.211640)" fill="#FFFFFF" stroke="#B59B61" stroke-width="1.1">
                                    <ellipse id="Oval" cx="147.427403" cy="147.470899" rx="147.427403" ry="147.470899"></ellipse>
                                    <ellipse id="Oval-Copy" cx="147.427403" cy="147.470899" rx="129.824131" ry="129.862434"></ellipse>
                                    <ellipse id="Oval-Copy-2" cx="147.427403" cy="147.470899" rx="112.220859" ry="112.253968"></ellipse>
                                    <ellipse id="Oval-Copy-3" cx="147.427403" cy="147.470899" rx="94.6175869" ry="94.6455026"></ellipse>
                                    <ellipse id="Oval-Copy-4" cx="147.427403" cy="147.470899" rx="77.0143149" ry="77.037037"></ellipse>
                                    <ellipse id="Oval-Copy-5" cx="147.427403" cy="147.470899" rx="59.4110429" ry="59.4285714"></ellipse>
                                </g>
                                <g id="Group-Copy-18" transform="translate(1081.501022, 24.211640)" fill="#FFFFFF" stroke="#B59B61" stroke-width="1.1">
                                    <ellipse id="Oval" cx="147.427403" cy="147.470899" rx="147.427403" ry="147.470899"></ellipse>
                                    <ellipse id="Oval-Copy" cx="147.427403" cy="147.470899" rx="129.824131" ry="129.862434"></ellipse>
                                    <ellipse id="Oval-Copy-2" cx="147.427403" cy="147.470899" rx="112.220859" ry="112.253968"></ellipse>
                                    <ellipse id="Oval-Copy-3" cx="147.427403" cy="147.470899" rx="94.6175869" ry="94.6455026"></ellipse>
                                    <ellipse id="Oval-Copy-4" cx="147.427403" cy="147.470899" rx="77.0143149" ry="77.037037"></ellipse>
                                    <ellipse id="Oval-Copy-5" cx="147.427403" cy="147.470899" rx="59.4110429" ry="59.4285714"></ellipse>
                                </g>
                            </g>
                        </g>
                    </g>
                </g>
            </g>
        </g>
    </g>
</svg>